Num;NF;AF;PM;NU;EP;n-fold;f1-score
1;8;elu;valid;9;15;1;0.7195203197868089
2;8;elu;valid;9;30;1;0.7934718100890208
3;8;elu;valid;9;60;1;0.7668617185093932
4;8;elu;same;9;15;1;0.7685154433742942
5;8;elu;same;9;30;1;0.6998373983739837
6;8;elu;same;9;60;1;0.6967136150234742
7;8;elu;valid;19;15;1;0.7505126452494874
8;8;elu;valid;19;30;1;0.7051240734772801
9;8;elu;valid;19;60;1;0.6710650329877474
10;8;elu;same;19;15;1;0.7298126064735946
11;8;elu;same;19;30;1;0.5866311938809445
12;8;elu;same;19;60;1;0.5783048482734566
13;8;elu;valid;38;15;1;0.6768630003254149
14;8;elu;valid;38;30;1;0.663258785942492
15;8;elu;valid;38;60;1;0.7169932540957277
16;8;elu;same;38;15;1;0.5454545454545454
17;8;elu;same;38;30;1;0.6990666237528161
18;8;elu;same;38;60;1;0.6970387243735764
19;8;elu;valid;76;15;1;0.7676442152755398
20;8;elu;valid;76;30;1;0.7575287177895064
21;8;elu;valid;76;60;1;0.755609460278957
22;8;elu;same;76;15;1;0.8894039735099339
23;8;elu;same;76;30;1;0.7286269430051814
24;8;elu;same;76;60;1;0.654837629728825
25;8;relu;valid;9;15;1;0.5716292134831461
26;8;relu;valid;9;30;1;0.6595460614152203
27;8;relu;valid;9;60;1;0.6949924127465857
28;8;relu;same;9;15;1;0.690340909090909
29;8;relu;same;9;30;1;0.6171393341553637
30;8;relu;same;9;60;1;0.6054866100587851
31;8;relu;valid;19;15;1;0.6173725771715721
32;8;relu;valid;19;30;1;0.613956686146442
33;8;relu;valid;19;60;1;0.6766233766233766
34;8;relu;same;19;15;1;0.6048414592567336
35;8;relu;same;19;30;1;0.577884286203355
36;8;relu;same;19;60;1;0.610343719884356
37;8;relu;valid;38;15;1;0.7200251098556183
38;8;relu;valid;38;30;1;0.6080634500991408
39;8;relu;valid;38;60;1;0.7028942705256941
40;8;relu;same;38;15;1;0.6474683544303798
41;8;relu;same;38;30;1;0.6682289922999665
42;8;relu;same;38;60;1;0.6047999999999999
43;8;relu;valid;76;15;1;0.5633187772925765
44;8;relu;valid;76;30;1;0.6236851034950798
45;8;relu;valid;76;60;1;0.7380438136377662
46;8;relu;same;76;15;1;0.6586319218241042
47;8;relu;same;76;30;1;0.6446004680708792
48;8;relu;same;76;60;1;0.6815605201733912
49;16;elu;valid;9;15;1;0.7774725274725276
50;16;elu;valid;9;30;1;0.7521313545942534
51;16;elu;valid;9;60;1;0.674105677715786
52;16;elu;same;9;15;1;0.7684824902723735
53;16;elu;same;9;30;1;0.6710390058681394
54;16;elu;same;9;60;1;0.5884389061959154
55;16;elu;valid;19;15;1;0.7644840589646898
56;16;elu;valid;19;30;1;0.6371438379677308
57;16;elu;valid;19;60;1;0.6701097482246611
58;16;elu;same;19;15;1;0.8388960205391529
59;16;elu;same;19;30;1;0.6741415557112824
60;16;elu;same;19;60;1;0.6798179059180577
61;16;elu;valid;38;15;1;0.7747808496291302
62;16;elu;valid;38;30;1;0.6944727026110545
63;16;elu;valid;38;60;1;0.7169179229480738
64;16;elu;same;38;15;1;0.8048519443453444
65;16;elu;same;38;30;1;0.5626389918458117
66;16;elu;same;38;60;1;0.7146883808330724
67;16;elu;valid;76;15;1;0.6767015706806283
68;16;elu;valid;76;30;1;0.5626579992777175
69;16;elu;valid;76;60;1;0.5883896359462119
70;16;elu;same;76;15;1;0.7997112955611693
71;16;elu;same;76;30;1;0.7074520013016595
72;16;elu;same;76;60;1;0.6522180833051135
73;16;relu;valid;9;15;1;0.5651705565529623
74;16;relu;valid;9;30;1;0.5705105319528739
75;16;relu;valid;9;60;1;0.6147271531886916
76;16;relu;same;9;15;1;0.6346153846153846
77;16;relu;same;9;30;1;0.5682216766047001
78;16;relu;same;9;60;1;0.6358642972536349
79;16;relu;valid;19;15;1;0.5622152120574833
80;16;relu;valid;19;30;1;0.6271471876052543
81;16;relu;valid;19;60;1;0.6023573200992556
82;16;relu;same;19;15;1;0.6296296296296297
83;16;relu;same;19;30;1;0.6872414890232262
84;16;relu;same;19;60;1;0.6002069679199724
85;16;relu;valid;38;15;1;0.6307295029051001
86;16;relu;valid;38;30;1;0.5998715478484264
87;16;relu;valid;38;60;1;0.6258925799441167
88;16;relu;same;38;15;1;0.5659543109801032
89;16;relu;same;38;30;1;0.5884401114206129
90;16;relu;same;38;60;1;0.5560253699788583
91;16;relu;valid;76;15;1;0.6222961730449251
92;16;relu;valid;76;30;1;0.6083095464636853
93;16;relu;valid;76;60;1;0.7530364372469636
94;16;relu;same;76;15;1;0.6316171138506164
95;16;relu;same;76;30;1;0.6183206106870228
96;16;relu;same;76;60;1;0.63257065948856
97;32;elu;valid;9;15;1;0.8924197285666997
98;32;elu;valid;9;30;1;0.6853055916775033
99;32;elu;valid;9;60;1;0.7314074984634297
100;32;elu;same;9;15;1;0.7860481841064365
101;32;elu;same;9;30;1;0.6118491921005387
102;32;elu;same;9;60;1;0.6023329798515377
103;32;elu;valid;19;15;1;0.8185985592665356
104;32;elu;valid;19;30;1;0.5975773889636609
105;32;elu;valid;19;60;1;0.6273037542662115
106;32;elu;same;19;15;1;0.8560959360426382
107;32;elu;same;19;30;1;0.6267313019390581
108;32;elu;same;19;60;1;0.7155059132720104
109;32;elu;valid;38;15;1;0.7512520868113522
110;32;elu;valid;38;30;1;0.7412951513179303
111;32;elu;valid;38;60;1;0.6896124031007751
112;32;elu;same;38;15;1;0.6803883495145632
113;32;elu;same;38;30;1;0.4813895781637717
114;32;elu;same;38;60;1;0.556953179594689
115;32;elu;valid;76;15;1;0.7680284191829485
116;32;elu;valid;76;30;1;0.737231182795699
117;32;elu;valid;76;60;1;0.6804714877349475
118;32;elu;same;76;15;1;0.877008855362414
119;32;elu;same;76;30;1;0.6919858384293531
120;32;elu;same;76;60;1;0.6000000000000001
121;32;relu;valid;9;15;1;0.4713423831070889
122;32;relu;valid;9;30;1;0.6470040360136603
123;32;relu;valid;9;60;1;0.5820802005012531
124;32;relu;same;9;15;1;0.5988470668023059
125;32;relu;same;9;30;1;0.7017114914425429
126;32;relu;same;9;60;1;0.6816199376947041
127;32;relu;valid;19;15;1;0.6754879259014225
128;32;relu;valid;19;30;1;0.5963756177924218
129;32;relu;valid;19;60;1;0.7146067415730336
130;32;relu;same;19;15;1;0.6904005085823267
131;32;relu;same;19;30;1;0.5438718662952646
132;32;relu;same;19;60;1;0.576112412177986
133;32;relu;valid;38;15;1;0.655083655083655
134;32;relu;valid;38;30;1;0.7177522349936143
135;32;relu;valid;38;60;1;0.6840901666122182
136;32;relu;same;38;15;1;0.7389100126742711
137;32;relu;same;38;30;1;0.6231736323479443
138;32;relu;same;38;60;1;0.5387299371946964
139;32;relu;valid;76;15;1;0.675290215588723
140;32;relu;valid;76;30;1;0.6296656929568322
141;32;relu;valid;76;60;1;0.5895352616184596
142;32;relu;same;76;15;1;0.6537958115183247
143;32;relu;same;76;30;1;0.5601631543167913
144;32;relu;same;76;60;1;0.5774116031582561
145;64;elu;valid;9;15;1;0.7134035597529967
146;64;elu;valid;9;30;1;0.7566475934028947
147;64;elu;valid;9;60;1;0.6865183246073299
148;64;elu;same;9;15;1;0.9048496009821978
149;64;elu;same;9;30;1;0.6596936869630182
150;64;elu;same;9;60;1;0.7169811320754718
151;64;elu;valid;19;15;1;0.7856200527704486
152;64;elu;valid;19;30;1;0.6500818330605564
153;64;elu;valid;19;60;1;0.7086156824782188
154;64;elu;same;19;15;1;0.7816176470588235
155;64;elu;same;19;30;1;0.8257011004614838
156;64;elu;same;19;60;1;0.6881155613919895
157;64;elu;valid;38;15;1;0.8232603724273113
158;64;elu;valid;38;30;1;0.7749712973593571
159;64;elu;valid;38;60;1;0.6694386694386695
160;64;elu;same;38;15;1;0.8971840209561232
161;64;elu;same;38;30;1;0.7909645034062388
162;64;elu;same;38;60;1;0.684540389972145
163;64;elu;valid;76;15;1;0.8253863860572181
164;64;elu;valid;76;30;1;0.8198717948717948
165;64;elu;valid;76;60;1;0.7701782820097245
166;64;elu;same;76;15;1;0.8592082616179001
167;64;elu;same;76;30;1;0.8318646457525556
168;64;elu;same;76;60;1;0.7044947401976409
169;64;relu;valid;9;15;1;0.6186411744622738
170;64;relu;valid;9;30;1;0.6806380982170785
171;64;relu;valid;9;60;1;0.4585698070374575
172;64;relu;same;9;15;1;0.6183310533515731
173;64;relu;same;9;30;1;0.4052631578947368
174;64;relu;same;9;60;1;0.38750940556809627
175;64;relu;valid;19;15;1;0.5745738636363636
176;64;relu;valid;19;30;1;0.6523929471032747
177;64;relu;valid;19;60;1;0.5268505079825835
178;64;relu;same;19;15;1;0.4793577981651376
179;64;relu;same;19;30;1;0.6334470989761093
180;64;relu;same;19;60;1;0.5929787973583595
181;64;relu;valid;38;15;1;0.6737367436057393
182;64;relu;valid;38;30;1;0.5115957078573901
183;64;relu;valid;38;60;1;0.6332070707070707
184;64;relu;same;38;15;1;0.37149917627677104
185;64;relu;same;38;30;1;0.563329745245784
186;64;relu;same;38;60;1;0.5627240143369175
187;64;relu;valid;76;15;1;0.6076037670038368
188;64;relu;valid;76;30;1;0.5911330049261083
189;64;relu;valid;76;60;1;0.659134925758554
190;64;relu;same;76;15;1;0.5809694793536804
191;64;relu;same;76;30;1;0.5704742818971276
192;64;relu;same;76;60;1;0.64746772591857
193;8;elu;valid;9;15;2;0.8838095238095238
194;8;elu;valid;9;30;2;0.8441814595660749
195;8;elu;valid;9;60;2;0.8571428571428571
196;8;elu;same;9;15;2;0.9269406392694064
197;8;elu;same;9;30;2;0.8768567321514135
198;8;elu;same;9;60;2;0.8758984187829418
199;8;elu;valid;19;15;2;0.9062062529164722
200;8;elu;valid;19;30;2;0.8839200761179828
201;8;elu;valid;19;60;2;0.8500459981600736
202;8;elu;same;19;15;2;0.9082440614811366
203;8;elu;same;19;30;2;0.8532289628180039
204;8;elu;same;19;60;2;0.888045540796964
205;8;elu;valid;38;15;2;0.8576998050682261
206;8;elu;valid;38;30;2;0.8506304558680892
207;8;elu;valid;38;60;2;0.8272007452258965
208;8;elu;same;38;15;2;0.9603524229074889
209;8;elu;same;38;30;2;0.863239573229874
210;8;elu;same;38;60;2;0.831390134529148
211;8;elu;valid;76;15;2;0.8568646543330087
212;8;elu;valid;76;30;2;0.9120370370370371
213;8;elu;valid;76;60;2;0.8300946686596911
214;8;elu;same;76;15;2;0.8800764452938366
215;8;elu;same;76;30;2;0.8900424728645588
216;8;elu;same;76;60;2;0.8741594620557157
217;8;relu;valid;9;15;2;0.8488714425907753
218;8;relu;valid;9;30;2;0.8951574988246356
219;8;relu;valid;9;60;2;0.7960965588084232
220;8;relu;same;9;15;2;0.8738049713193116
221;8;relu;same;9;30;2;0.8855106888361045
222;8;relu;same;9;60;2;0.8849809885931559
223;8;relu;valid;19;15;2;0.8906767628963559
224;8;relu;valid;19;30;2;0.8838095238095238
225;8;relu;valid;19;60;2;0.8713534194165471
226;8;relu;same;19;15;2;0.8600583090379009
227;8;relu;same;19;30;2;0.9051844932274639
228;8;relu;same;19;60;2;0.8803051979017645
229;8;relu;valid;38;15;2;0.8617121354656632
230;8;relu;valid;38;30;2;0.8731988472622478
231;8;relu;valid;38;60;2;0.8893093661305582
232;8;relu;same;38;15;2;0.8650217706821481
233;8;relu;same;38;30;2;0.9063809967396367
234;8;relu;same;38;60;2;0.8800764452938366
235;8;relu;valid;76;15;2;0.885727833096254
236;8;relu;valid;76;30;2;0.8809523809523809
237;8;relu;valid;76;60;2;0.8513902205177373
238;8;relu;same;76;15;2;0.9069767441860465
239;8;relu;same;76;30;2;0.8810198300283286
240;8;relu;same;76;60;2;0.8968105065666041
241;16;elu;valid;9;15;2;0.9455690508322087
242;16;elu;valid;9;30;2;0.8662481892805409
243;16;elu;valid;9;60;2;0.8928739971684757
244;16;elu;same;9;15;2;0.8936970837253057
245;16;elu;same;9;30;2;0.9333937471681014
246;16;elu;same;9;60;2;0.888045540796964
247;16;elu;valid;19;15;2;0.9143121815655396
248;16;elu;valid;19;30;2;0.8902554399243142
249;16;elu;valid;19;60;2;0.8958724202626641
250;16;elu;same;19;15;2;0.9031352363125876
251;16;elu;same;19;30;2;0.8828571428571429
252;16;elu;same;19;60;2;0.8867924528301887
253;16;elu;valid;38;15;2;0.8964218455743879
254;16;elu;valid;38;30;2;0.8752399232245681
255;16;elu;valid;38;60;2;0.8949599623174753
256;16;elu;same;38;15;2;0.9036482694106641
257;16;elu;same;38;30;2;0.8932955618508026
258;16;elu;same;38;60;2;0.9218031278748849
259;16;elu;valid;76;15;2;0.9013557737260401
260;16;elu;valid;76;30;2;0.892032060348892
261;16;elu;valid;76;60;2;0.8570048309178745
262;16;elu;same;76;15;2;0.9267399267399267
263;16;elu;same;76;30;2;0.9311445508435933
264;16;elu;same;76;60;2;0.9431920649233544
265;16;relu;valid;9;15;2;0.8330019880715707
266;16;relu;valid;9;30;2;0.888787185354691
267;16;relu;valid;9;60;2;0.8597590361445783
268;16;relu;same;9;15;2;0.9035863996273871
269;16;relu;same;9;30;2;0.8908833254605575
270;16;relu;same;9;60;2;0.9039179104477612
271;16;relu;valid;19;15;2;0.8822126847877921
272;16;relu;valid;19;30;2;0.8865685809207405
273;16;relu;valid;19;60;2;0.8618516723218613
274;16;relu;same;19;15;2;0.898876404494382
275;16;relu;same;19;30;2;0.9296803652968036
276;16;relu;same;19;60;2;0.8252378567851778
277;16;relu;valid;38;15;2;0.8892045454545455
278;16;relu;valid;38;30;2;0.865412445730825
279;16;relu;valid;38;60;2;0.8560273304050757
280;16;relu;same;38;15;2;0.8626880155264435
281;16;relu;same;38;30;2;0.8847795163584637
282;16;relu;same;38;60;2;0.856167723061921
283;16;relu;valid;76;15;2;0.8727796447431589
284;16;relu;valid;76;30;2;0.8841405508072174
285;16;relu;valid;76;60;2;0.8860520094562647
286;16;relu;same;76;15;2;0.9222988505747126
287;16;relu;same;76;30;2;0.900656044985942
288;16;relu;same;76;60;2;0.827046918123275
289;32;elu;valid;9;15;2;0.9223702342673404
290;32;elu;valid;9;30;2;0.8672139063254465
291;32;elu;valid;9;60;2;0.8264132066033018
292;32;elu;same;9;15;2;0.8481572481572481
293;32;elu;same;9;30;2;0.9773519163763067
294;32;elu;same;9;60;2;0.8221105527638191
295;32;elu;valid;19;15;2;0.8481572481572481
296;32;elu;valid;19;30;2;0.8596406022340942
297;32;elu;valid;19;60;2;0.8901515151515151
298;32;elu;same;19;15;2;0.8838095238095238
299;32;elu;same;19;30;2;0.8589494163424125
300;32;elu;same;19;60;2;0.894860914662895
301;32;elu;valid;38;15;2;0.8576998050682261
302;32;elu;valid;38;30;2;0.8610301263362488
303;32;elu;valid;38;60;2;0.8979783732957217
304;32;elu;same;38;15;2;0.92772186642269
305;32;elu;same;38;30;2;0.9047619047619048
306;32;elu;same;38;60;2;0.8332503733200598
307;32;elu;valid;76;15;2;0.962372731297034
308;32;elu;valid;76;30;2;0.8672139063254465
309;32;elu;valid;76;60;2;0.8784688995215311
310;32;elu;same;76;15;2;0.9311445508435933
311;32;elu;same;76;30;2;0.8959020254357042
312;32;elu;same;76;60;2;0.8811455847255371
313;32;relu;valid;9;15;2;0.90014064697609
314;32;relu;valid;9;30;2;0.9047840222944727
315;32;relu;valid;9;60;2;0.8467939304943711
316;32;relu;same;9;15;2;0.8738049713193116
317;32;relu;same;9;30;2;0.8881547899952807
318;32;relu;same;9;60;2;0.8886783514921838
319;32;relu;valid;19;15;2;0.8935969868173259
320;32;relu;valid;19;30;2;0.8806466951973371
321;32;relu;valid;19;60;2;0.8628571428571428
322;32;relu;same;19;15;2;0.909344490934449
323;32;relu;same;19;30;2;0.8838095238095238
324;32;relu;same;19;60;2;0.8572820263029712
325;32;relu;valid;38;15;2;0.873618452666987
326;32;relu;valid;38;30;2;0.9022346368715085
327;32;relu;valid;38;60;2;0.8907801418439717
328;32;relu;same;38;15;2;0.891713747645951
329;32;relu;same;38;30;2;0.9036482694106641
330;32;relu;same;38;60;2;0.8531128404669261
331;32;relu;valid;76;15;2;0.8526676456191875
332;32;relu;valid;76;30;2;0.9764397905759163
333;32;relu;valid;76;60;2;0.8194097048524263
334;32;relu;same;76;15;2;0.8784688995215311
335;32;relu;same;76;30;2;0.903828197945845
336;32;relu;same;76;60;2;0.8894139886578449
337;64;elu;valid;9;15;2;0.9471799462846912
338;64;elu;valid;9;30;2;0.8570261437908496
339;64;elu;valid;9;60;2;0.8413247652001977
340;64;elu;same;9;15;2;0.877677296525464
341;64;elu;same;9;30;2;0.8919301557338367
342;64;elu;same;9;60;2;0.8650217706821481
343;64;elu;valid;19;15;2;0.9059590316573556
344;64;elu;valid;19;30;2;0.9660643455266638
345;64;elu;valid;19;60;2;0.8537897310513448
346;64;elu;same;19;15;2;0.9011709601873538
347;64;elu;same;19;30;2;0.9311445508435933
348;64;elu;same;19;60;2;0.8675034867503487
349;64;elu;valid;38;15;2;0.9336363636363637
350;64;elu;valid;38;30;2;0.9056956115779645
351;64;elu;valid;38;60;2;0.8714492055849783
352;64;elu;same;38;15;2;0.9313948205361199
353;64;elu;same;38;30;2;0.8979783732957217
354;64;elu;same;38;60;2;0.94666069027342
355;64;elu;valid;76;15;2;0.898876404494382
356;64;elu;valid;76;30;2;0.908499767765908
357;64;elu;valid;76;60;2;0.8901515151515151
358;64;elu;same;76;15;2;0.9242771913721891
359;64;elu;same;76;30;2;0.9446693657219973
360;64;elu;same;76;60;2;0.8885727833096254
361;64;relu;valid;9;15;2;0.8995305164319248
362;64;relu;valid;9;30;2;0.8850902184235517
363;64;relu;valid;9;60;2;0.884560570071259
364;64;relu;same;9;15;2;0.8834123222748813
365;64;relu;same;9;30;2;0.8560273304050757
366;64;relu;same;9;60;2;0.8971348050728041
367;64;relu;valid;19;15;2;0.8815478999528079
368;64;relu;valid;19;30;2;0.9327272727272727
369;64;relu;valid;19;60;2;0.855609756097561
370;64;relu;same;19;15;2;0.9011709601873538
371;64;relu;same;19;30;2;0.8626880155264435
372;64;relu;same;19;60;2;0.8696069031639502
373;64;relu;valid;38;15;2;0.9469901168014375
374;64;relu;valid;38;30;2;0.877511961722488
375;64;relu;valid;38;60;2;0.8492881688757978
376;64;relu;same;38;15;2;0.8971348050728041
377;64;relu;same;38;30;2;0.8604764219737482
378;64;relu;same;38;60;2;0.9001865671641791
379;64;relu;valid;76;15;2;0.9148936170212766
380;64;relu;valid;76;30;2;0.8607350096711798
381;64;relu;valid;76;60;2;0.8564476885644768
382;64;relu;same;76;15;2;0.9628318584070796
383;64;relu;same;76;30;2;0.8851992409867172
384;64;relu;same;76;60;2;0.8629343629343629
385;8;elu;valid;9;15;3;0.8523316062176166
386;8;elu;valid;9;30;3;0.5559174809989142
387;8;elu;valid;9;60;3;0.5801608579088472
388;8;elu;same;9;15;3;0.6900584795321638
389;8;elu;same;9;30;3;0.6275510204081632
390;8;elu;same;9;60;3;0.43796455117209837
391;8;elu;valid;19;15;3;0.7599629286376274
392;8;elu;valid;19;30;3;0.6436898124683224
393;8;elu;valid;19;60;3;0.6402035623409669
394;8;elu;same;19;15;3;0.7819004524886877
395;8;elu;same;19;30;3;0.6487309644670051
396;8;elu;same;19;60;3;0.5688935281837161
397;8;elu;valid;38;15;3;0.7598699489084998
398;8;elu;valid;38;30;3;0.6308169596690796
399;8;elu;valid;38;60;3;0.6905697445972495
400;8;elu;same;38;15;3;0.8066696710229834
401;8;elu;same;38;30;3;0.7123552123552125
402;8;elu;same;38;60;3;0.5846477392218717
403;8;elu;valid;76;15;3;0.7912687585266029
404;8;elu;valid;76;30;3;0.6156250000000001
405;8;elu;valid;76;60;3;0.610909090909091
406;8;elu;same;76;15;3;0.7416470588235293
407;8;elu;same;76;30;3;0.7401798390913393
408;8;elu;same;76;60;3;0.44379732090856144
409;8;relu;valid;9;15;3;0.7478912839737583
410;8;relu;valid;9;30;3;0.6147498710675606
411;8;relu;valid;9;60;3;0.5292817679558011
412;8;relu;same;9;15;3;0.7069722086786933
413;8;relu;same;9;30;3;0.584089695675387
414;8;relu;same;9;60;3;0.7702888583218708
415;8;relu;valid;19;15;3;0.780840488025305
416;8;relu;valid;19;30;3;0.7958539882830103
417;8;relu;valid;19;60;3;0.6726457399103138
418;8;relu;same;19;15;3;0.6746746746746747
419;8;relu;same;19;30;3;0.6304347826086957
420;8;relu;same;19;60;3;0.5869797225186767
421;8;relu;valid;38;15;3;0.7451719265190768
422;8;relu;valid;38;30;3;0.6834817012858555
423;8;relu;valid;38;60;3;0.6334012219959266
424;8;relu;same;38;15;3;0.8313518273888155
425;8;relu;same;38;30;3;0.6958661417322834
426;8;relu;same;38;60;3;0.7337446606549596
427;8;relu;valid;76;15;3;0.7396226415094339
428;8;relu;valid;76;30;3;0.6947574718275354
429;8;relu;valid;76;60;3;0.6528395061728395
430;8;relu;same;76;15;3;0.6592517694641051
431;8;relu;same;76;30;3;0.7394653375623017
432;8;relu;same;76;60;3;0.5405994550408719
433;16;elu;valid;9;15;3;0.7637867647058824
434;16;elu;valid;9;30;3;0.7355883754168652
435;16;elu;valid;9;60;3;0.620976116303219
436;16;elu;same;9;15;3;0.7016867469879517
437;16;elu;same;9;30;3;0.7658785350023181
438;16;elu;same;9;60;3;0.5654730090860501
439;16;elu;valid;19;15;3;0.7231424514907714
440;16;elu;valid;19;30;3;0.7192307692307691
441;16;elu;valid;19;60;3;0.627491057741441
442;16;elu;same;19;15;3;0.7217973231357552
443;16;elu;same;19;30;3;0.6936359151455354
444;16;elu;same;19;60;3;0.5852363250132766
445;16;elu;valid;38;15;3;0.8008988764044944
446;16;elu;valid;38;30;3;0.6716417910447762
447;16;elu;valid;38;60;3;0.5174515235457063
448;16;elu;same;38;15;3;0.7917620137299771
449;16;elu;same;38;30;3;0.7047340165934601
450;16;elu;same;38;60;3;0.7250957854406131
451;16;elu;valid;76;15;3;0.7772685609532539
452;16;elu;valid;76;30;3;0.6452926208651399
453;16;elu;valid;76;60;3;0.6509764646970456
454;16;elu;same;76;15;3;0.8445975032285836
455;16;elu;same;76;30;3;0.7403936269915652
456;16;elu;same;76;60;3;0.7357176033441708
457;16;relu;valid;9;15;3;0.6451287228672388
458;16;relu;valid;9;30;3;0.7399336807200378
459;16;relu;valid;9;60;3;0.7299760191846523
460;16;relu;same;9;15;3;0.6434426229508197
461;16;relu;same;9;30;3;0.7364928909952606
462;16;relu;same;9;60;3;0.7690179806362379
463;16;relu;valid;19;15;3;0.6950074147305981
464;16;relu;valid;19;30;3;0.723342939481268
465;16;relu;valid;19;60;3;0.7234650166587341
466;16;relu;same;19;15;3;0.6845238095238095
467;16;relu;same;19;30;3;0.7445394112060779
468;16;relu;same;19;60;3;0.6912263693650025
469;16;relu;valid;38;15;3;0.7419354838709676
470;16;relu;valid;38;30;3;0.7261390887290168
471;16;relu;valid;38;60;3;0.7124824684431977
472;16;relu;same;38;15;3;0.6733668341708543
473;16;relu;same;38;30;3;0.7440758293838863
474;16;relu;same;38;60;3;0.79402444545043
475;16;relu;valid;76;15;3;0.7711627906976743
476;16;relu;valid;76;30;3;0.7886809675947056
477;16;relu;valid;76;60;3;0.6669965363681345
478;16;relu;same;76;15;3;0.8385120350109408
479;16;relu;same;76;30;3;0.7678818643285648
480;16;relu;same;76;60;3;0.6191467221644121
481;32;elu;valid;9;15;3;0.6746867167919799
482;32;elu;valid;9;30;3;0.6861675756073377
483;32;elu;valid;9;60;3;0.6643666830951207
484;32;elu;same;9;15;3;0.9303041971505583
485;32;elu;same;9;30;3;0.7246653919694073
486;32;elu;same;9;60;3;0.702729044834308
487;32;elu;valid;19;15;3;0.7275334608030593
488;32;elu;valid;19;30;3;0.7380952380952381
489;32;elu;valid;19;60;3;0.5798184730379071
490;32;elu;same;19;15;3;0.845351867940921
491;32;elu;same;19;30;3;0.6706827309236948
492;32;elu;same;19;60;3;0.6598139990210475
493;32;elu;valid;38;15;3;0.7276227141482193
494;32;elu;valid;38;30;3;0.7061105722599418
495;32;elu;valid;38;60;3;0.6274509803921569
496;32;elu;same;38;15;3;0.8555363321799309
497;32;elu;same;38;30;3;0.7395979429640019
498;32;elu;same;38;60;3;0.6210092687950567
499;32;elu;valid;76;15;3;0.6716867469879518
500;32;elu;valid;76;30;3;0.6889434889434888
501;32;elu;valid;76;60;3;0.7008296730112249
502;32;elu;same;76;15;3;0.8925619834710744
503;32;elu;same;76;30;3;0.711996114618747
504;32;elu;same;76;60;3;0.7627515208235844
505;32;relu;valid;9;15;3;0.5769644779332616
506;32;relu;valid;9;30;3;0.7548054383497421
507;32;relu;valid;9;60;3;0.7272727272727273
508;32;relu;same;9;15;3;0.6955665024630542
509;32;relu;same;9;30;3;0.6353790613718412
510;32;relu;same;9;60;3;0.7217973231357552
511;32;relu;valid;19;15;3;0.7074363992172212
512;32;relu;valid;19;30;3;0.7753623188405797
513;32;relu;valid;19;60;3;0.7269249163079867
514;32;relu;same;19;15;3;0.7716390423572744
515;32;relu;same;19;30;3;0.6965317919075144
516;32;relu;same;19;60;3;0.7035611164581329
517;32;relu;valid;38;15;3;0.6007403490216816
518;32;relu;valid;38;30;3;0.7258761401824293
519;32;relu;valid;38;60;3;0.6877739892839747
520;32;relu;same;38;15;3;0.7693018955154878
521;32;relu;same;38;30;3;0.7136690647482014
522;32;relu;same;38;60;3;0.6827348745696015
523;32;relu;valid;76;15;3;0.716144578313253
524;32;relu;valid;76;30;3;0.7900226757369614
525;32;relu;valid;76;60;3;0.794755877034358
526;32;relu;same;76;15;3;0.6946640316205533
527;32;relu;same;76;30;3;0.790676826535186
528;32;relu;same;76;60;3;0.7318944844124701
529;64;elu;valid;9;15;3;0.8975806451612903
530;64;elu;valid;9;30;3;0.6676721970839619
531;64;elu;valid;9;60;3;0.7971079981924989
532;64;elu;same;9;15;3;0.8745279060008392
533;64;elu;same;9;30;3;0.769859282796187
534;64;elu;same;9;60;3;0.7070217917675545
535;64;elu;valid;19;15;3;0.8919690175295556
536;64;elu;valid;19;30;3;0.6799402687904431
537;64;elu;valid;19;60;3;0.6534552845528455
538;64;elu;same;19;15;3;0.8573861217539378
539;64;elu;same;19;30;3;0.7969383160738406
540;64;elu;same;19;60;3;0.6082474226804123
541;64;elu;valid;38;15;3;0.8333333333333333
542;64;elu;valid;38;30;3;0.7549607752653438
543;64;elu;valid;38;60;3;0.6686686686686687
544;64;elu;same;38;15;3;0.8016014234875445
545;64;elu;same;38;30;3;0.6845504222553404
546;64;elu;same;38;60;3;0.7607476635514019
547;64;elu;valid;76;15;3;0.8397463002114164
548;64;elu;valid;76;30;3;0.7667121418826739
549;64;elu;valid;76;60;3;0.7115384615384615
550;64;elu;same;76;15;3;0.939816660023914
551;64;elu;same;76;30;3;0.797723292469352
552;64;elu;same;76;60;3;0.7046228710462287
553;64;relu;valid;9;15;3;0.4923076923076922
554;64;relu;valid;9;30;3;0.6947771921418303
555;64;relu;valid;9;60;3;0.7352537722908093
556;64;relu;same;9;15;3;0.815343443354148
557;64;relu;same;9;30;3;0.7427759355755567
558;64;relu;same;9;60;3;0.691866028708134
559;64;relu;valid;19;15;3;0.7978580990629183
560;64;relu;valid;19;30;3;0.7380176826430896
561;64;relu;valid;19;60;3;0.6364572605561277
562;64;relu;same;19;15;3;0.7386958591147074
563;64;relu;same;19;30;3;0.7724770642201836
564;64;relu;same;19;60;3;0.796133567662566
565;64;relu;valid;38;15;3;0.6874074074074074
566;64;relu;valid;38;30;3;0.6749256689791872
567;64;relu;valid;38;60;3;0.7508001828989483
568;64;relu;same;38;15;3;0.6743602609131961
569;64;relu;same;38;30;3;0.7771689497716894
570;64;relu;same;38;60;3;0.729455216989843
571;64;relu;valid;76;15;3;0.7368922783603432
572;64;relu;valid;76;30;3;0.7941048981361075
573;64;relu;valid;76;60;3;0.7945330296127563
574;64;relu;same;76;15;3;0.7914194431766317
575;64;relu;same;76;30;3;0.7809013833110219
576;64;relu;same;76;60;3;0.746641963872163
577;8;elu;valid;9;15;4;0.7788796569284374
578;8;elu;valid;9;30;4;0.758562128502689
579;8;elu;valid;9;60;4;0.7640067911714771
580;8;elu;same;9;15;4;0.8075983717774763
581;8;elu;same;9;30;4;0.8350316717157807
582;8;elu;same;9;60;4;0.774918663117421
583;8;elu;valid;19;15;4;0.8234336859235151
584;8;elu;valid;19;30;4;0.8086057557977089
585;8;elu;valid;19;60;4;0.7973364215402432
586;8;elu;same;19;15;4;0.7982905982905985
587;8;elu;same;19;30;4;0.8092031425364759
588;8;elu;same;19;60;4;0.8071672354948806
589;8;elu;valid;38;15;4;0.9047739328113159
590;8;elu;valid;38;30;4;0.7647571968595522
591;8;elu;valid;38;60;4;0.7939411260360103
592;8;elu;same;38;15;4;0.8158185840707964
593;8;elu;same;38;30;4;0.806504961411246
594;8;elu;same;38;60;4;0.8528638991066737
595;8;elu;valid;76;15;4;0.926056338028169
596;8;elu;valid;76;30;4;0.7598278335724533
597;8;elu;valid;76;60;4;0.7765957446808511
598;8;elu;same;76;15;4;0.930824008138352
599;8;elu;same;76;30;4;0.7773664727657325
600;8;elu;same;76;60;4;0.7179054054054054
601;8;relu;valid;9;15;4;0.772369571553483
602;8;relu;valid;9;30;4;0.7756874095513748
603;8;relu;valid;9;60;4;0.774948785484343
604;8;relu;same;9;15;4;0.8606154641841222
605;8;relu;same;9;30;4;0.7577639751552796
606;8;relu;same;9;60;4;0.7267492081773683
607;8;relu;valid;19;15;4;0.7833047455688965
608;8;relu;valid;19;30;4;0.782051282051282
609;8;relu;valid;19;60;4;0.7725254635675111
610;8;relu;same;19;15;4;0.8112943807660049
611;8;relu;same;19;30;4;0.8338044092707746
612;8;relu;same;19;60;4;0.767551622418879
613;8;relu;valid;38;15;4;0.764012647312446
614;8;relu;valid;38;30;4;0.7778095510437517
615;8;relu;valid;38;60;4;0.7846372688477952
616;8;relu;same;38;15;4;0.7892586106246351
617;8;relu;same;38;30;4;0.7624209575429088
618;8;relu;same;38;60;4;0.7422620769453283
619;8;relu;valid;76;15;4;0.7755894590846047
620;8;relu;valid;76;30;4;0.7107683180065262
621;8;relu;valid;76;60;4;0.7577456476836826
622;8;relu;same;76;15;4;0.819689964645091
623;8;relu;same;76;30;4;0.7354382144801306
624;8;relu;same;76;60;4;0.7445887445887446
625;16;elu;valid;9;15;4;0.8247650635710337
626;16;elu;valid;9;30;4;0.8284122562674094
627;16;elu;valid;9;60;4;0.7369925671812465
628;16;elu;same;9;15;4;0.9308207289858667
629;16;elu;same;9;30;4;0.9449056603773586
630;16;elu;same;9;60;4;0.7329650092081031
631;16;elu;valid;19;15;4;0.8108258928571428
632;16;elu;valid;19;30;4;0.8264462809917356
633;16;elu;valid;19;60;4;0.7347161572052403
634;16;elu;same;19;15;4;0.9221321542618521
635;16;elu;same;19;30;4;0.8704232666839782
636;16;elu;same;19;60;4;0.8018223234624147
637;16;elu;valid;38;15;4;0.8974093264248704
638;16;elu;valid;38;30;4;0.7797875394774619
639;16;elu;valid;38;60;4;0.8400770712909442
640;16;elu;same;38;15;4;0.8401851347672203
641;16;elu;same;38;30;4;0.8777130757014294
642;16;elu;same;38;60;4;0.8300506471581317
643;16;elu;valid;76;15;4;0.9009926189870198
644;16;elu;valid;76;30;4;0.8075620767494357
645;16;elu;valid;76;60;4;0.799305957200694
646;16;elu;same;76;15;4;0.8634197988353626
647;16;elu;same;76;30;4;0.8194726166328601
648;16;elu;same;76;60;4;0.779785431959345
649;16;relu;valid;9;15;4;0.8028694404591105
650;16;relu;valid;9;30;4;0.7760778859527121
651;16;relu;valid;9;60;4;0.753574432296047
652;16;relu;same;9;15;4;0.8139994355066327
653;16;relu;same;9;30;4;0.7986743993371996
654;16;relu;same;9;60;4;0.6965909090909091
655;16;relu;valid;19;15;4;0.7908809456797073
656;16;relu;valid;19;30;4;0.7661891117478511
657;16;relu;valid;19;60;4;0.751588502269289
658;16;relu;same;19;15;4;0.8054855863420095
659;16;relu;same;19;30;4;0.7678571428571429
660;16;relu;same;19;60;4;0.7758318739054291
661;16;relu;valid;38;15;4;0.8100056211354693
662;16;relu;valid;38;30;4;0.7391688770999115
663;16;relu;valid;38;60;4;0.72
664;16;relu;same;38;15;4;0.8016407852329328
665;16;relu;same;38;30;4;0.765494137353434
666;16;relu;same;38;60;4;0.8079392877991827
667;16;relu;valid;76;15;4;0.7858796296296297
668;16;relu;valid;76;30;4;0.8695175438596491
669;16;relu;valid;76;60;4;0.7343485617597292
670;16;relu;same;76;15;4;0.8416532474503489
671;16;relu;same;76;30;4;0.7807991120976694
672;16;relu;same;76;60;4;0.709915014164306
673;32;elu;valid;9;15;4;0.8256587702954485
674;32;elu;valid;9;30;4;0.7365826944140198
675;32;elu;valid;9;60;4;0.7078833693304535
676;32;elu;same;9;15;4;0.9050416054821342
677;32;elu;same;9;30;4;0.7964055040718899
678;32;elu;same;9;60;4;0.7961616749054958
679;32;elu;valid;19;15;4;0.9197154471544715
680;32;elu;valid;19;30;4;0.8885472713297463
681;32;elu;valid;19;60;4;0.7710633352701918
682;32;elu;same;19;15;4;0.8996262680192204
683;32;elu;same;19;30;4;0.8086907449209932
684;32;elu;same;19;60;4;0.814033086138049
685;32;elu;valid;38;15;4;0.9272402348736277
686;32;elu;valid;38;30;4;0.8007845334827682
687;32;elu;valid;38;60;4;0.8044444444444444
688;32;elu;same;38;15;4;0.9230769230769232
689;32;elu;same;38;30;4;0.8206686930091186
690;32;elu;same;38;60;4;0.8115107913669064
691;32;elu;valid;76;15;4;0.9193954659949622
692;32;elu;valid;76;30;4;0.889944576405384
693;32;elu;valid;76;60;4;0.7648970747562297
694;32;elu;same;76;15;4;0.9538539553752536
695;32;elu;same;76;30;4;0.8662728249194415
696;32;elu;same;76;60;4;0.8098510882016037
697;32;relu;valid;9;15;4;0.7365967365967366
698;32;relu;valid;9;30;4;0.7768595041322314
699;32;relu;valid;9;60;4;0.7632344386271087
700;32;relu;same;9;15;4;0.7747904018502458
701;32;relu;same;9;30;4;0.7507850413930915
702;32;relu;same;9;60;4;0.6586206896551724
703;32;relu;valid;19;15;4;0.81437125748503
704;32;relu;valid;19;30;4;0.7890182035213369
705;32;relu;valid;19;60;4;0.7647534357316087
706;32;relu;same;19;15;4;0.8166939443535187
707;32;relu;same;19;30;4;0.8025871766029248
708;32;relu;same;19;60;4;0.7431824992508241
709;32;relu;valid;38;15;4;0.8107954545454545
710;32;relu;valid;38;30;4;0.7326279668287103
711;32;relu;valid;38;60;4;0.73901247965274
712;32;relu;same;38;15;4;0.8069278818852925
713;32;relu;same;38;30;4;0.8021633931113009
714;32;relu;same;38;60;4;0.770672546857773
715;32;relu;valid;76;15;4;0.7937928976424947
716;32;relu;valid;76;30;4;0.7743954480796588
717;32;relu;valid;76;60;4;0.7407192575406033
718;32;relu;same;76;15;4;0.823937554206418
719;32;relu;same;76;30;4;0.7472527472527472
720;32;relu;same;76;60;4;0.7806236080178174
721;64;elu;valid;9;15;4;0.8839835728952772
722;64;elu;valid;9;30;4;0.7414608512874409
723;64;elu;valid;9;60;4;0.8002183406113539
724;64;elu;same;9;15;4;0.9078121075106756
725;64;elu;same;9;30;4;0.8411062906724512
726;64;elu;same;9;60;4;0.7714514835605454
727;64;elu;valid;19;15;4;0.8363347457627118
728;64;elu;valid;19;30;4;0.8303448275862069
729;64;elu;valid;19;60;4;0.7836224054591983
730;64;elu;same;19;15;4;0.908816880180859
731;64;elu;same;19;30;4;0.8130170987313844
732;64;elu;same;19;60;4;0.883974883974884
733;64;elu;valid;38;15;4;0.9116143170197224
734;64;elu;valid;38;30;4;0.7653631284916202
735;64;elu;valid;38;60;4;0.9415633695927145
736;64;elu;same;38;15;4;0.9142004476498384
737;64;elu;same;38;30;4;0.9202666008392989
738;64;elu;same;38;60;4;0.8234948604992658
739;64;elu;valid;76;15;4;0.9041301627033792
740;64;elu;valid;76;30;4;0.7997832565700352
741;64;elu;valid;76;60;4;0.912374908469612
742;64;elu;same;76;15;4;0.9348469891411649
743;64;elu;same;76;30;4;0.9265033407572383
744;64;elu;same;76;60;4;0.8668631127779266
745;64;relu;valid;9;15;4;0.7366969947615108
746;64;relu;valid;9;30;4;0.8097395243488108
747;64;relu;valid;9;60;4;0.7504000000000002
748;64;relu;same;9;15;4;0.7885044642857143
749;64;relu;same;9;30;4;0.7526646624760863
750;64;relu;same;9;60;4;0.8395810363836825
751;64;relu;valid;19;15;4;0.8020477815699659
752;64;relu;valid;19;30;4;0.7431434599156118
753;64;relu;valid;19;60;4;0.7958596894767107
754;64;relu;same;19;15;4;0.7897133672649345
755;64;relu;same;19;30;4;0.7355043685464653
756;64;relu;same;19;60;4;0.709351305812974
757;64;relu;valid;38;15;4;0.8046293744833288
758;64;relu;valid;38;30;4;0.7508493771234428
759;64;relu;valid;38;60;4;0.7553017944535073
760;64;relu;same;38;15;4;0.8601495430628634
761;64;relu;same;38;30;4;0.7934662236987818
762;64;relu;same;38;60;4;0.7129283040598905
763;64;relu;valid;76;15;4;0.8930307941653162
764;64;relu;valid;76;30;4;0.8058755760368663
765;64;relu;valid;76;60;4;0.8048505358150028
766;64;relu;same;76;15;4;0.7920506912442397
767;64;relu;same;76;30;4;0.7933884297520661
768;64;relu;same;76;60;4;0.7960257159555815
769;8;elu;valid;9;15;5;0.7649226234340456
770;8;elu;valid;9;30;5;0.6522043386983905
771;8;elu;valid;9;60;5;0.6130841121495327
772;8;elu;same;9;15;5;0.6591390261115032
773;8;elu;same;9;30;5;0.6524770642201835
774;8;elu;same;9;60;5;0.530775379696243
775;8;elu;valid;19;15;5;0.6902229845626072
776;8;elu;valid;19;30;5;0.5747214752208989
777;8;elu;valid;19;60;5;0.6921173559561683
778;8;elu;same;19;15;5;0.7261490923136347
779;8;elu;same;19;30;5;0.6821651630811937
780;8;elu;same;19;60;5;0.6153302719886966
781;8;elu;valid;38;15;5;0.7125271542360608
782;8;elu;valid;38;30;5;0.644598035649327
783;8;elu;valid;38;60;5;0.6191358024691359
784;8;elu;same;38;15;5;0.6642787365678932
785;8;elu;same;38;30;5;0.7067209775967415
786;8;elu;same;38;60;5;0.6975458002073972
787;8;elu;valid;76;15;5;0.66147859922179
788;8;elu;valid;76;30;5;0.6024442846872753
789;8;elu;valid;76;60;5;0.6950596252129472
790;8;elu;same;76;15;5;0.7003863716192484
791;8;elu;same;76;30;5;0.5641677255400254
792;8;elu;same;76;60;5;0.5969756738987508
793;8;relu;valid;9;15;5;0.6450751252086812
794;8;relu;valid;9;30;5;0.6853295535081503
795;8;relu;valid;9;60;5;0.6926315789473684
796;8;relu;same;9;15;5;0.6568593910366062
797;8;relu;same;9;30;5;0.6395563770794824
798;8;relu;same;9;60;5;0.6468200270635995
799;8;relu;valid;19;15;5;0.6814035087719298
800;8;relu;valid;19;30;5;0.6168286959436808
801;8;relu;valid;19;60;5;0.6516778523489932
802;8;relu;same;19;15;5;0.6909600560616679
803;8;relu;same;19;30;5;0.7335183900069397
804;8;relu;same;19;60;5;0.6328269729529455
805;8;relu;valid;38;15;5;0.6629941672067401
806;8;relu;valid;38;30;5;0.6636481241914618
807;8;relu;valid;38;60;5;0.692967409948542
808;8;relu;same;38;15;5;0.6898756660746003
809;8;relu;same;38;30;5;0.5674822415153906
810;8;relu;same;38;60;5;0.7336512261580383
811;8;relu;valid;76;15;5;0.6726013847675568
812;8;relu;valid;76;30;5;0.6459709379128138
813;8;relu;valid;76;60;5;0.6942038640906062
814;8;relu;same;76;15;5;0.6418966737438075
815;8;relu;same;76;30;5;0.5479245283018868
816;8;relu;same;76;60;5;0.6029246344206974
817;16;elu;valid;9;15;5;0.6661818181818181
818;16;elu;valid;9;30;5;0.6577370461755375
819;16;elu;valid;9;60;5;0.6866310160427807
820;16;elu;same;9;15;5;0.7135610415962124
821;16;elu;same;9;30;5;0.5443037974683544
822;16;elu;same;9;60;5;0.5623279591034211
823;16;elu;valid;19;15;5;0.6949965729952022
824;16;elu;valid;19;30;5;0.6696613683483069
825;16;elu;valid;19;60;5;0.5959768155472213
826;16;elu;same;19;15;5;0.7100000000000001
827;16;elu;same;19;30;5;0.6629603891591384
828;16;elu;same;19;60;5;0.6290375203915172
829;16;elu;valid;38;15;5;0.6931894807821982
830;16;elu;valid;38;30;5;0.6883255980007141
831;16;elu;valid;38;60;5;0.629313543599258
832;16;elu;same;38;15;5;0.6603646185010128
833;16;elu;same;38;30;5;0.6507313592579379
834;16;elu;same;38;60;5;0.6708661417322834
835;16;elu;valid;76;15;5;0.6614119259766963
836;16;elu;valid;76;30;5;0.6903991370010787
837;16;elu;valid;76;60;5;0.6689631415776782
838;16;elu;same;76;15;5;0.6852276449394038
839;16;elu;same;76;30;5;0.6319702602230484
840;16;elu;same;76;60;5;0.6806543385490754
841;16;relu;valid;9;15;5;0.662152530292231
842;16;relu;valid;9;30;5;0.6322770817980841
843;16;relu;valid;9;60;5;0.7163444639718806
844;16;relu;same;9;15;5;0.70229996760609
845;16;relu;same;9;30;5;0.5793372319688109
846;16;relu;same;9;60;5;0.729550991994431
847;16;relu;valid;19;15;5;0.7162022703818369
848;16;relu;valid;19;30;5;0.6656308266003728
849;16;relu;valid;19;60;5;0.7323651452282158
850;16;relu;same;19;15;5;0.7131348511383537
851;16;relu;same;19;30;5;0.7157595161864105
852;16;relu;same;19;60;5;0.7405927405927406
853;16;relu;valid;38;15;5;0.6116983791402395
854;16;relu;valid;38;30;5;0.5828698553948832
855;16;relu;valid;38;60;5;0.6791907514450867
856;16;relu;same;38;15;5;0.709353000335233
857;16;relu;same;38;30;5;0.7062864994847133
858;16;relu;same;38;60;5;0.684588934041888
859;16;relu;valid;76;15;5;0.7036526533425222
860;16;relu;valid;76;30;5;0.6685899747565813
861;16;relu;valid;76;60;5;0.7135749822316986
862;16;relu;same;76;15;5;0.6603508771929825
863;16;relu;same;76;30;5;0.7423167848699763
864;16;relu;same;76;60;5;0.7025712300208479
865;32;elu;valid;9;15;5;0.7002039428959893
866;32;elu;valid;9;30;5;0.574107464839524
867;32;elu;valid;9;60;5;0.7248275862068966
868;32;elu;same;9;15;5;0.7265749920051167
869;32;elu;same;9;30;5;0.6357661708751297
870;32;elu;same;9;60;5;0.7012006861063464
871;32;elu;valid;19;15;5;0.6284271284271284
872;32;elu;valid;19;30;5;0.7038303693570452
873;32;elu;valid;19;60;5;0.6442089326267979
874;32;elu;same;19;15;5;0.7025641025641025
875;32;elu;same;19;30;5;0.6571136131013307
876;32;elu;same;19;60;5;0.6584093872229465
877;32;elu;valid;38;15;5;0.6847027388109552
878;32;elu;valid;38;30;5;0.6171310629514964
879;32;elu;valid;38;60;5;0.6814545454545455
880;32;elu;same;38;15;5;0.6800989749027925
881;32;elu;same;38;30;5;0.7050067658998647
882;32;elu;same;38;60;5;0.5675057208237987
883;32;elu;valid;76;15;5;0.711111111111111
884;32;elu;valid;76;30;5;0.7009646302250805
885;32;elu;valid;76;60;5;0.6945663179210261
886;32;elu;same;76;15;5;0.7050869285254345
887;32;elu;same;76;30;5;0.7308100459851433
888;32;elu;same;76;60;5;0.6596964586846544
889;32;relu;valid;9;15;5;0.556291390728477
890;32;relu;valid;9;30;5;0.6112872542802791
891;32;relu;valid;9;60;5;0.6442424242424243
892;32;relu;same;9;15;5;0.671356783919598
893;32;relu;same;9;30;5;0.5046367851622874
894;32;relu;same;9;60;5;0.7062107466852756
895;32;relu;valid;19;15;5;0.6722632639355272
896;32;relu;valid;19;30;5;0.7222414389484607
897;32;relu;valid;19;60;5;0.6474719101123596
898;32;relu;same;19;15;5;0.6608048698004734
899;32;relu;same;19;30;5;0.723404255319149
900;32;relu;same;19;60;5;0.6900623155132831
901;32;relu;valid;38;15;5;0.6750853242320819
902;32;relu;valid;38;30;5;0.6858390971969421
903;32;relu;valid;38;60;5;0.7301038062283738
904;32;relu;same;38;15;5;0.6565934065934067
905;32;relu;same;38;30;5;0.6127628716461203
906;32;relu;same;38;60;5;0.7282758620689654
907;32;relu;valid;76;15;5;0.7211538461538461
908;32;relu;valid;76;30;5;0.6627175120325804
909;32;relu;valid;76;60;5;0.704119850187266
910;32;relu;same;76;15;5;0.645438282647585
911;32;relu;same;76;30;5;0.6736566186107471
912;32;relu;same;76;60;5;0.7043719639139487
913;64;elu;valid;9;15;5;0.7003631961259079
914;64;elu;valid;9;30;5;0.7875354107648724
915;64;elu;valid;9;60;5;0.6015200868621063
916;64;elu;same;9;15;5;0.6518675123326285
917;64;elu;same;9;30;5;0.6587643678160919
918;64;elu;same;9;60;5;0.6426470588235295
919;64;elu;valid;19;15;5;0.6953966699314398
920;64;elu;valid;19;30;5;0.6370656370656371
921;64;elu;valid;19;60;5;0.6680716543730242
922;64;elu;same;19;15;5;0.6825834098561372
923;64;elu;same;19;30;5;0.6839060905069752
924;64;elu;same;19;60;5;0.6123690435958095
925;64;elu;valid;38;15;5;0.6523396880415944
926;64;elu;valid;38;30;5;0.6778691455130497
927;64;elu;valid;38;60;5;0.6292134831460674
928;64;elu;same;38;15;5;0.7037411526794742
929;64;elu;same;38;30;5;0.7386172006745363
930;64;elu;same;38;60;5;0.5946666666666667
931;64;elu;valid;76;15;5;0.7372262773722628
932;64;elu;valid;76;30;5;0.6451133407655146
933;64;elu;valid;76;60;5;0.6878238341968912
934;64;elu;same;76;15;5;0.6862925482980681
935;64;elu;same;76;30;5;0.7310606060606061
936;64;elu;same;76;60;5;0.7353976073187894
937;64;relu;valid;9;15;5;0.7406143344709898
938;64;relu;valid;9;30;5;0.702112676056338
939;64;relu;valid;9;60;5;0.6074600355239786
940;64;relu;same;9;15;5;0.6671418389166074
941;64;relu;same;9;30;5;0.6904422253922966
942;64;relu;same;9;60;5;0.7141838916607269
943;64;relu;valid;19;15;5;0.7122448979591837
944;64;relu;valid;19;30;5;0.713890808569454
945;64;relu;valid;19;60;5;0.7193333333333333
946;64;relu;same;19;15;5;0.6900547151593176
947;64;relu;same;19;30;5;0.6736995271007639
948;64;relu;same;19;60;5;0.6320434487440596
949;64;relu;valid;38;15;5;0.6983791402396053
950;64;relu;valid;38;30;5;0.731773482536453
951;64;relu;valid;38;60;5;0.7564276048714479
952;64;relu;same;38;15;5;0.739000992391664
953;64;relu;same;38;30;5;0.6786171574903969
954;64;relu;same;38;60;5;0.6488922268118663
955;64;relu;valid;76;15;5;0.7163561076604554
956;64;relu;valid;76;30;5;0.6851119894598157
957;64;relu;valid;76;60;5;0.7323549965059399
958;64;relu;same;76;15;5;0.6492511320097526
959;64;relu;same;76;30;5;0.6734763363976848
960;64;relu;same;76;60;5;0.6668816510802967
961;8;elu;valid;9;15;6;0.7852638566213077
962;8;elu;valid;9;30;6;0.8446536650975118
963;8;elu;valid;9;60;6;0.7849533954727032
964;8;elu;same;9;15;6;0.7787664927891991
965;8;elu;same;9;30;6;0.7811280595956014
966;8;elu;same;9;60;6;0.786476868327402
967;8;elu;valid;19;15;6;0.804270462633452
968;8;elu;valid;19;30;6;0.8030888030888033
969;8;elu;valid;19;60;6;0.7857142857142857
970;8;elu;same;19;15;6;0.7808842652795839
971;8;elu;same;19;30;6;0.7980487804878048
972;8;elu;same;19;60;6;0.8634964078002053
973;8;elu;valid;38;15;6;0.8081527013911355
974;8;elu;valid;38;30;6;0.8092172145035582
975;8;elu;valid;38;60;6;0.8570383912248629
976;8;elu;same;38;15;6;0.7960421321417172
977;8;elu;same;38;30;6;0.8392554991539763
978;8;elu;same;38;60;6;0.8164665523156088
979;8;elu;valid;76;15;6;0.7928616953473548
980;8;elu;valid;76;30;6;0.8316498316498316
981;8;elu;valid;76;60;6;0.8508248508248508
982;8;elu;same;76;15;6;0.7827216628775576
983;8;elu;same;76;30;6;0.80859375
984;8;elu;same;76;60;6;0.8521303258145364
985;8;relu;valid;9;15;6;0.8137535816618912
986;8;relu;valid;9;30;6;0.81277911370663
987;8;relu;valid;9;60;6;0.815927348934684
988;8;relu;same;9;15;6;0.8287858117326057
989;8;relu;same;9;30;6;0.7104085893229942
990;8;relu;same;9;60;6;0.8084526244035446
991;8;relu;valid;19;15;6;0.8045234248788369
992;8;relu;valid;19;30;6;0.7854615632036024
993;8;relu;valid;19;60;6;0.8109215017064847
994;8;relu;same;19;15;6;0.8307692307692309
995;8;relu;same;19;30;6;0.828013029315961
996;8;relu;same;19;60;6;0.8864306784660767
997;8;relu;valid;38;15;6;0.7913621262458472
998;8;relu;valid;38;30;6;0.8112421929215823
999;8;relu;valid;38;60;6;0.808682855040471
1000;8;relu;same;38;15;6;0.7924907810928594
1001;8;relu;same;38;30;6;0.793718772305496
1002;8;relu;same;38;60;6;0.798333911836168
1003;8;relu;valid;76;15;6;0.7763528307788552
1004;8;relu;valid;76;30;6;0.7961299239806497
1005;8;relu;valid;76;60;6;0.8070772371554951
1006;8;relu;same;76;15;6;0.7905245346869713
1007;8;relu;same;76;30;6;0.8199718706047819
1008;8;relu;same;76;60;6;0.7632367632367633
1009;16;elu;valid;9;15;6;0.7877151535605804
1010;16;elu;valid;9;30;6;0.8250423011844332
1011;16;elu;valid;9;60;6;0.7863137508069722
1012;16;elu;same;9;15;6;0.7980922098569156
1013;16;elu;same;9;30;6;0.8037323037323036
1014;16;elu;same;9;60;6;0.8416933475631447
1015;16;elu;valid;19;15;6;0.7905471026222077
1016;16;elu;valid;19;30;6;0.8438228438228438
1017;16;elu;valid;19;60;6;0.8432246998284735
1018;16;elu;same;19;15;6;0.8007675087943715
1019;16;elu;same;19;30;6;0.8080875041431886
1020;16;elu;same;19;60;6;0.837160014129283
1021;16;elu;valid;38;15;6;0.817295188556567
1022;16;elu;valid;38;30;6;0.8110129163834128
1023;16;elu;valid;38;60;6;0.8297730307076101
1024;16;elu;same;38;15;6;0.8179470626210457
1025;16;elu;same;38;30;6;0.7882544861337685
1026;16;elu;same;38;60;6;0.8345120226308345
1027;16;elu;valid;76;15;6;0.7988542329726289
1028;16;elu;valid;76;30;6;0.800804828973843
1029;16;elu;valid;76;60;6;0.8324625566004877
1030;16;elu;same;76;15;6;0.7778501628664495
1031;16;elu;same;76;30;6;0.8519805420430855
1032;16;elu;same;76;60;6;0.8245614035087719
1033;16;relu;valid;9;15;6;0.7925598991172762
1034;16;relu;valid;9;30;6;0.8242296918767507
1035;16;relu;valid;9;60;6;0.8595564941921858
1036;16;relu;same;9;15;6;0.7932088285229202
1037;16;relu;same;9;30;6;0.7885597548518898
1038;16;relu;same;9;60;6;0.8635541078537821
1039;16;relu;valid;19;15;6;0.8609137055837564
1040;16;relu;valid;19;30;6;0.8556944913822238
1041;16;relu;valid;19;60;6;0.8058217962371317
1042;16;relu;same;19;15;6;0.8260013131976363
1043;16;relu;same;19;30;6;0.8480845442536327
1044;16;relu;same;19;60;6;0.769734687192925
1045;16;relu;valid;38;15;6;0.8263912029323559
1046;16;relu;valid;38;30;6;0.8005455165359701
1047;16;relu;valid;38;60;6;0.856298485408201
1048;16;relu;same;38;15;6;0.7872410391318645
1049;16;relu;same;38;30;6;0.7832076090521483
1050;16;relu;same;38;60;6;0.7794216543375925
1051;16;relu;valid;76;15;6;0.8609077598828696
1052;16;relu;valid;76;30;6;0.8429867411025821
1053;16;relu;valid;76;60;6;0.8314768235716854
1054;16;relu;same;76;15;6;0.8157216494845361
1055;16;relu;same;76;30;6;0.892844677137871
1056;16;relu;same;76;60;6;0.8358315488936475
1057;32;elu;valid;9;15;6;0.822623828647925
1058;32;elu;valid;9;30;6;0.7940580688723835
1059;32;elu;valid;9;60;6;0.8674787744555187
1060;32;elu;same;9;15;6;0.8053647366699377
1061;32;elu;same;9;30;6;0.8331108144192255
1062;32;elu;same;9;60;6;0.8029525032092426
1063;32;elu;valid;19;15;6;0.8081471747700394
1064;32;elu;valid;19;30;6;0.817161716171617
1065;32;elu;valid;19;60;6;0.8401826484018265
1066;32;elu;same;19;15;6;0.8179470626210457
1067;32;elu;same;19;30;6;0.8197368421052632
1068;32;elu;same;19;60;6;0.8392351274787535
1069;32;elu;valid;38;15;6;0.8183673469387756
1070;32;elu;valid;38;30;6;0.8099173553719008
1071;32;elu;valid;38;60;6;0.8103913630229419
1072;32;elu;same;38;15;6;0.7688519544475222
1073;32;elu;same;38;30;6;0.8050518134715026
1074;32;elu;same;38;60;6;0.8018995929443691
1075;32;elu;valid;76;15;6;0.7916398713826365
1076;32;elu;valid;76;30;6;0.8314238952536824
1077;32;elu;valid;76;60;6;0.8047863247863248
1078;32;elu;same;76;15;6;0.8123803446075303
1079;32;elu;same;76;30;6;0.7974892632969938
1080;32;elu;same;76;60;6;0.8258064516129032
1081;32;relu;valid;9;15;6;0.7893155258764607
1082;32;relu;valid;9;30;6;0.7843262185409365
1083;32;relu;valid;9;60;6;0.8073970690858339
1084;32;relu;same;9;15;6;0.7689345314505776
1085;32;relu;same;9;30;6;0.8328097731239091
1086;32;relu;same;9;60;6;0.807813044994768
1087;32;relu;valid;19;15;6;0.8141834299352199
1088;32;relu;valid;19;30;6;0.7817157999337528
1089;32;relu;valid;19;60;6;0.86125746399719
1090;32;relu;same;19;15;6;0.849493487698987
1091;32;relu;same;19;30;6;0.8116838487972509
1092;32;relu;same;19;60;6;0.891320754716981
1093;32;relu;valid;38;15;6;0.823610631687953
1094;32;relu;valid;38;30;6;0.8622061482820976
1095;32;relu;valid;38;60;6;0.8252865578325806
1096;32;relu;same;38;15;6;0.8418248418248419
1097;32;relu;same;38;30;6;0.7777031564808596
1098;32;relu;same;38;60;6;0.8241065171688858
1099;32;relu;valid;76;15;6;0.7985074626865672
1100;32;relu;valid;76;30;6;0.8187869822485208
1101;32;relu;valid;76;60;6;0.8367052023121387
1102;32;relu;same;76;15;6;0.7716111671712076
1103;32;relu;same;76;30;6;0.8273727647867951
1104;32;relu;same;76;60;6;0.8123725356900069
1105;64;elu;valid;9;15;6;0.7574948055802908
1106;64;elu;valid;9;30;6;0.8094620868438109
1107;64;elu;valid;9;60;6;0.8122476446837146
1108;64;elu;same;9;15;6;0.7647775746496039
1109;64;elu;same;9;30;6;0.7572932330827068
1110;64;elu;same;9;60;6;0.80998613037448
1111;64;elu;valid;19;15;6;0.8005215123859192
1112;64;elu;valid;19;30;6;0.7854909318323953
1113;64;elu;valid;19;60;6;0.8714961776483438
1114;64;elu;same;19;15;6;0.7593052109181142
1115;64;elu;same;19;30;6;0.8341575997362347
1116;64;elu;same;19;60;6;0.8307692307692307
1117;64;elu;valid;38;15;6;0.8020598648213711
1118;64;elu;valid;38;30;6;0.7676831185161899
1119;64;elu;valid;38;60;6;0.7869608165953244
1120;64;elu;same;38;15;6;0.7926867059188101
1121;64;elu;same;38;30;6;0.7815721649484536
1122;64;elu;same;38;60;6;0.8328785811732606
1123;64;elu;valid;76;15;6;0.8007578149668456
1124;64;elu;valid;76;30;6;0.8159529257927427
1125;64;elu;valid;76;60;6;0.8346296922556645
1126;64;elu;same;76;15;6;0.7933312362378105
1127;64;elu;same;76;30;6;0.8038245961094627
1128;64;elu;same;76;60;6;0.8400656814449918
1129;64;relu;valid;9;15;6;0.8043025676613462
1130;64;relu;valid;9;30;6;0.7932432432432431
1131;64;relu;valid;9;60;6;0.8371438621174816
1132;64;relu;same;9;15;6;0.8083044982698961
1133;64;relu;same;9;30;6;0.83841059602649
1134;64;relu;same;9;60;6;0.8419905557573557
1135;64;relu;valid;19;15;6;0.8139613690274483
1136;64;relu;valid;19;30;6;0.8467363865849261
1137;64;relu;valid;19;60;6;0.7759634225996082
1138;64;relu;same;19;15;6;0.7666983222538778
1139;64;relu;same;19;30;6;0.8311327310632383
1140;64;relu;same;19;60;6;0.8529839883551673
1141;64;relu;valid;38;15;6;0.8488372093023255
1142;64;relu;valid;38;30;6;0.7944369063772049
1143;64;relu;valid;38;60;6;0.7851690294438386
1144;64;relu;same;38;15;6;0.8592896174863388
1145;64;relu;same;38;30;6;0.802582398912674
1146;64;relu;same;38;60;6;0.8886517253646389
1147;64;relu;valid;76;15;6;0.8026272577996716
1148;64;relu;valid;76;30;6;0.7766677408959071
1149;64;relu;valid;76;60;6;0.840949344668792
1150;64;relu;same;76;15;6;0.7786833855799373
1151;64;relu;same;76;30;6;0.7781866845098696
1152;64;relu;same;76;60;6;0.8200549450549449
1153;8;elu;valid;9;15;7;0.6588904694167852
1154;8;elu;valid;9;30;7;0.6539462272333044
1155;8;elu;valid;9;60;7;0.6853620955315871
1156;8;elu;same;9;15;7;0.6674318507890961
1157;8;elu;same;9;30;7;0.663685152057245
1158;8;elu;same;9;60;7;0.6383701188455008
1159;8;elu;valid;19;15;7;0.635195530726257
1160;8;elu;valid;19;30;7;0.6527050610820245
1161;8;elu;valid;19;60;7;0.6560094730609829
1162;8;elu;same;19;15;7;0.6413432424993118
1163;8;elu;same;19;30;7;0.6520358071036673
1164;8;elu;same;19;60;7;0.6503969420758601
1165;8;elu;valid;38;15;7;0.6349381017881706
1166;8;elu;valid;38;30;7;0.6711884399882041
1167;8;elu;valid;38;60;7;0.6561495763949752
1168;8;elu;same;38;15;7;0.6412892470130592
1169;8;elu;same;38;30;7;0.6377638334284085
1170;8;elu;same;38;60;7;0.6546301688992429
1171;8;elu;valid;76;15;7;0.6574154379878577
1172;8;elu;valid;76;30;7;0.6439988375472246
1173;8;elu;valid;76;60;7;0.6662718389102754
1174;8;elu;same;76;15;7;0.6479977597311677
1175;8;elu;same;76;30;7;0.6522988505747127
1176;8;elu;same;76;60;7;0.6694889628061688
1177;8;relu;valid;9;15;7;0.6553314121037463
1178;8;relu;valid;9;30;7;0.6378066378066378
1179;8;relu;valid;9;60;7;0.6253143336127411
1180;8;relu;same;9;15;7;0.6328408140507388
1181;8;relu;same;9;30;7;0.6694535682293222
1182;8;relu;same;9;60;7;0.6465816917728853
1183;8;relu;valid;19;15;7;0.6490522688110282
1184;8;relu;valid;19;30;7;0.6638349514563107
1185;8;relu;valid;19;60;7;0.6141879278158058
1186;8;relu;same;19;15;7;0.660245183887916
1187;8;relu;same;19;30;7;0.6478209658421672
1188;8;relu;same;19;60;7;0.6798059429957551
1189;8;relu;valid;38;15;7;0.6586931155192532
1190;8;relu;valid;38;30;7;0.6622754491017965
1191;8;relu;valid;38;60;7;0.6601882781658063
1192;8;relu;same;38;15;7;0.6647298082510168
1193;8;relu;same;38;30;7;0.6567425569176882
1194;8;relu;same;38;60;7;0.6634787806335923
1195;8;relu;valid;76;15;7;0.6347607052896725
1196;8;relu;valid;76;30;7;0.6684668466846684
1197;8;relu;valid;76;60;7;0.6634353226295063
1198;8;relu;same;76;15;7;0.6628108733371891
1199;8;relu;same;76;30;7;0.6717650657693485
1200;8;relu;same;76;60;7;0.6559673183542456
1201;16;elu;valid;9;15;7;0.6541135573580532
1202;16;elu;valid;9;30;7;0.6761329305135951
1203;16;elu;valid;9;60;7;0.6429595640952107
1204;16;elu;same;9;15;7;0.6506963788300836
1205;16;elu;same;9;30;7;0.6551319648093841
1206;16;elu;same;9;60;7;0.6688292539074019
1207;16;elu;valid;19;15;7;0.6426966292134831
1208;16;elu;valid;19;30;7;0.6676557863501483
1209;16;elu;valid;19;60;7;0.6569905213270142
1210;16;elu;same;19;15;7;0.6546984572230014
1211;16;elu;same;19;30;7;0.6662732369430511
1212;16;elu;same;19;60;7;0.6551623281661306
1213;16;elu;valid;38;15;7;0.6566906474820143
1214;16;elu;valid;38;30;7;0.673094305513709
1215;16;elu;valid;38;60;7;0.6613095238095237
1216;16;elu;same;38;15;7;0.6529091430209228
1217;16;elu;same;38;30;7;0.6525522041763341
1218;16;elu;same;38;60;7;0.6615746180963572
1219;16;elu;valid;76;15;7;0.6489542114188807
1220;16;elu;valid;76;30;7;0.6686355581807442
1221;16;elu;valid;76;60;7;0.6509461426491995
1222;16;elu;same;76;15;7;0.635735984534659
1223;16;elu;same;76;30;7;0.6635238656452562
1224;16;elu;same;76;60;7;0.6315491362220335
1225;16;relu;valid;9;15;7;0.6489241223103058
1226;16;relu;valid;9;30;7;0.6455399061032864
1227;16;relu;valid;9;60;7;0.6698795180722891
1228;16;relu;same;9;15;7;0.6422121896162529
1229;16;relu;same;9;30;7;0.6502403846153847
1230;16;relu;same;9;60;7;0.6648967551622419
1231;16;relu;valid;19;15;7;0.668854415274463
1232;16;relu;valid;19;30;7;0.6581904198698995
1233;16;relu;valid;19;60;7;0.6484307515116613
1234;16;relu;same;19;15;7;0.6466723793201942
1235;16;relu;same;19;30;7;0.6579572446555819
1236;16;relu;same;19;60;7;0.6600361663652803
1237;16;relu;valid;38;15;7;0.6384922901199314
1238;16;relu;valid;38;30;7;0.672243800418285
1239;16;relu;valid;38;60;7;0.6849485821128077
1240;16;relu;same;38;15;7;0.6597040905134901
1241;16;relu;same;38;30;7;0.6561587857559837
1242;16;relu;same;38;60;7;0.673426781986281
1243;16;relu;valid;76;15;7;0.6472269868496284
1244;16;relu;valid;76;30;7;0.6731176292712429
1245;16;relu;valid;76;60;7;0.6829566279780085
1246;16;relu;same;76;15;7;0.6531674862597627
1247;16;relu;same;76;30;7;0.66725768321513
1248;16;relu;same;76;60;7;0.6453143534994069
1249;32;elu;valid;9;15;7;0.6392156862745098
1250;32;elu;valid;9;30;7;0.6664711058961572
1251;32;elu;valid;9;60;7;0.6594071385359952
1252;32;elu;same;9;15;7;0.6333241226858248
1253;32;elu;same;9;30;7;0.6475808760377899
1254;32;elu;same;9;60;7;0.6712574850299402
1255;32;elu;valid;19;15;7;0.6478873239436619
1256;32;elu;valid;19;30;7;0.6596552731522057
1257;32;elu;valid;19;60;7;0.6636418632788869
1258;32;elu;same;19;15;7;0.6328082563824009
1259;32;elu;same;19;30;7;0.6577880718008107
1260;32;elu;same;19;60;7;0.661610268378063
1261;32;elu;valid;38;15;7;0.6508742244782855
1262;32;elu;valid;38;30;7;0.6544378698224852
1263;32;elu;valid;38;60;7;0.6660766961651918
1264;32;elu;same;38;15;7;0.6536170212765957
1265;32;elu;same;38;30;7;0.6516072980017377
1266;32;elu;same;38;60;7;0.651672433679354
1267;32;elu;valid;76;15;7;0.6317233809001098
1268;32;elu;valid;76;30;7;0.638716938660664
1269;32;elu;valid;76;60;7;0.6680485638140362
1270;32;elu;same;76;15;7;0.6236559139784946
1271;32;elu;same;76;30;7;0.66047051989544
1272;32;elu;same;76;60;7;0.6680424528301887
1273;32;relu;valid;9;15;7;0.6367485182049111
1274;32;relu;valid;9;30;7;0.6746177370030582
1275;32;relu;valid;9;60;7;0.6618488407106293
1276;32;relu;same;9;15;7;0.64818519577022
1277;32;relu;same;9;30;7;0.6578560939794421
1278;32;relu;same;9;60;7;0.6466996219831346
1279;32;relu;valid;19;15;7;0.6803625377643504
1280;32;relu;valid;19;30;7;0.6668662077222388
1281;32;relu;valid;19;60;7;0.6678854357099329
1282;32;relu;same;19;15;7;0.6428169014084507
1283;32;relu;same;19;30;7;0.6585510688836105
1284;32;relu;same;19;60;7;0.6550480769230769
1285;32;relu;valid;38;15;7;0.6607194244604317
1286;32;relu;valid;38;30;7;0.6740263722784422
1287;32;relu;valid;38;60;7;0.65569774527727
1288;32;relu;same;38;15;7;0.6356804898413582
1289;32;relu;same;38;30;7;0.6473310706572045
1290;32;relu;same;38;60;7;0.645760743321719
1291;32;relu;valid;76;15;7;0.6449771689497715
1292;32;relu;valid;76;30;7;0.670897552130553
1293;32;relu;valid;76;60;7;0.6549954723815274
1294;32;relu;same;76;15;7;0.6320491345616973
1295;32;relu;same;76;30;7;0.6537330981775427
1296;32;relu;same;76;60;7;0.6583381754793725
1297;64;elu;valid;9;15;7;0.6339187705817784
1298;64;elu;valid;9;30;7;0.6252796420581656
1299;64;elu;valid;9;60;7;0.6342788171394086
1300;64;elu;same;9;15;7;0.6142819219538094
1301;64;elu;same;9;30;7;0.6547344110854503
1302;64;elu;same;9;60;7;0.66090961427749
1303;64;elu;valid;19;15;7;0.6258992805755396
1304;64;elu;valid;19;30;7;0.6419263456090651
1305;64;elu;valid;19;60;7;0.6616454229432214
1306;64;elu;same;19;15;7;0.6169927633342268
1307;64;elu;same;19;30;7;0.6482991284790554
1308;64;elu;same;19;60;7;0.6686443191931178
1309;64;elu;valid;38;15;7;0.6527503526093087
1310;64;elu;valid;38;30;7;0.6592958975851033
1311;64;elu;valid;38;60;7;0.6571594877764843
1312;64;elu;same;38;15;7;0.6258393768466292
1313;64;elu;same;38;30;7;0.6472418670438473
1314;64;elu;same;38;60;7;0.6635266411539593
1315;64;elu;valid;76;15;7;0.6217167614405632
1316;64;elu;valid;76;30;7;0.6759643916913948
1317;64;elu;valid;76;60;7;0.6720333929636255
1318;64;elu;same;76;15;7;0.6982142857142858
1319;64;elu;same;76;30;7;0.6411536328341653
1320;64;elu;same;76;60;7;0.6700356718192628
1321;64;relu;valid;9;15;7;0.6575262543757293
1322;64;relu;valid;9;30;7;0.639067055393586
1323;64;relu;valid;9;60;7;0.6515730667450751
1324;64;relu;same;9;15;7;0.6718146718146718
1325;64;relu;same;9;30;7;0.6519440124416795
1326;64;relu;same;9;60;7;0.625070264193367
1327;64;relu;valid;19;15;7;0.6520125606622894
1328;64;relu;valid;19;30;7;0.675807434491164
1329;64;relu;valid;19;60;7;0.6743133111983097
1330;64;relu;same;19;15;7;0.6498153933541606
1331;64;relu;same;19;30;7;0.6746177370030582
1332;64;relu;same;19;60;7;0.6495119787045254
1333;64;relu;valid;38;15;7;0.6461716937354989
1334;64;relu;valid;38;30;7;0.6458519179304193
1335;64;relu;valid;38;60;7;0.6364155251141552
1336;64;relu;same;38;15;7;0.6662732369430511
1337;64;relu;same;38;30;7;0.6553166069295101
1338;64;relu;same;38;60;7;0.6636446056210336
1339;64;relu;valid;76;15;7;0.6508435802116099
1340;64;relu;valid;76;30;7;0.6447831184056273
1341;64;relu;valid;76;60;7;0.6836766062096526
1342;64;relu;same;76;15;7;0.6506300114547536
1343;64;relu;same;76;30;7;0.6674626865671641
1344;64;relu;same;76;60;7;0.6688350088704909
1345;8;elu;valid;9;15;8;0.8073578595317725
1346;8;elu;valid;9;30;8;0.7677843936070197
1347;8;elu;valid;9;60;8;0.7767188563648741
1348;8;elu;same;9;15;8;0.788271394476645
1349;8;elu;same;9;30;8;0.7775936360623136
1350;8;elu;same;9;60;8;0.8031547814656589
1351;8;elu;valid;19;15;8;0.8173741362290228
1352;8;elu;valid;19;30;8;0.8538091969800959
1353;8;elu;valid;19;60;8;0.8068143100511074
1354;8;elu;same;19;15;8;0.8093622795115332
1355;8;elu;same;19;30;8;0.8173611111111111
1356;8;elu;same;19;60;8;0.8047729532648327
1357;8;elu;valid;38;15;8;0.8387307818122341
1358;8;elu;valid;38;30;8;0.8140214216163583
1359;8;elu;valid;38;60;8;0.7944463257704031
1360;8;elu;same;38;15;8;0.8306294613887086
1361;8;elu;same;38;30;8;0.8347301374455246
1362;8;elu;same;38;60;8;0.7705248990578736
1363;8;elu;valid;76;15;8;0.7750261597488664
1364;8;elu;valid;76;30;8;0.7451108213820079
1365;8;elu;valid;76;60;8;0.7795462241788013
1366;8;elu;same;76;15;8;0.8048452220726784
1367;8;elu;same;76;30;8;0.7778136085133827
1368;8;elu;same;76;60;8;0.820615796519411
1369;8;relu;valid;9;15;8;0.7865662272441934
1370;8;relu;valid;9;30;8;0.7109935776350585
1371;8;relu;valid;9;60;8;0.8270826418851643
1372;8;relu;same;9;15;8;0.8251659816629782
1373;8;relu;same;9;30;8;0.7679296346414074
1374;8;relu;same;9;60;8;0.7738589211618259
1375;8;relu;valid;19;15;8;0.801498127340824
1376;8;relu;valid;19;30;8;0.8081710820300032
1377;8;relu;valid;19;60;8;0.7972665148063782
1378;8;relu;same;19;15;8;0.7998743323908263
1379;8;relu;same;19;30;8;0.8734306073973532
1380;8;relu;same;19;60;8;0.7732463295269169
1381;8;relu;valid;38;15;8;0.8047223994894703
1382;8;relu;valid;38;30;8;0.7900903916973552
1383;8;relu;valid;38;60;8;0.7827854964418841
1384;8;relu;same;38;15;8;0.8274739583333333
1385;8;relu;same;38;30;8;0.8077534159517
1386;8;relu;same;38;60;8;0.7824282255274991
1387;8;relu;valid;76;15;8;0.8383272966743496
1388;8;relu;valid;76;30;8;0.8175972927241963
1389;8;relu;valid;76;60;8;0.7979139504563233
1390;8;relu;same;76;15;8;0.8376408217362491
1391;8;relu;same;76;30;8;0.7967067764407854
1392;8;relu;same;76;60;8;0.676280834914611
1393;16;elu;valid;9;15;8;0.7862778730703258
1394;16;elu;valid;9;30;8;0.7749598715890852
1395;16;elu;valid;9;60;8;0.7856664434025452
1396;16;elu;same;9;15;8;0.7900380491179522
1397;16;elu;same;9;30;8;0.7860321807600139
1398;16;elu;same;9;60;8;0.8258426966292135
1399;16;elu;valid;19;15;8;0.8348806366047746
1400;16;elu;valid;19;30;8;0.8436758223126484
1401;16;elu;valid;19;60;8;0.7931034482758621
1402;16;elu;same;19;15;8;0.8270676691729323
1403;16;elu;same;19;30;8;0.7997289054557776
1404;16;elu;same;19;60;8;0.7715053763440861
1405;16;elu;valid;38;15;8;0.8090551181102363
1406;16;elu;valid;38;30;8;0.7818242565987303
1407;16;elu;valid;38;60;8;0.7758681164503682
1408;16;elu;same;38;15;8;0.7925757082383589
1409;16;elu;same;38;30;8;0.7969323107702567
1410;16;elu;same;38;60;8;0.7930919960146131
1411;16;elu;valid;76;15;8;0.8237265415549598
1412;16;elu;valid;76;30;8;0.8337332876242715
1413;16;elu;valid;76;60;8;0.811314475873544
1414;16;elu;same;76;15;8;0.8467635402906207
1415;16;elu;same;76;30;8;0.743247640741946
1416;16;elu;same;76;60;8;0.8125199616735869
1417;16;relu;valid;9;15;8;0.801434626671014
1418;16;relu;valid;9;30;8;0.7963085036255767
1419;16;relu;valid;9;60;8;0.8650156958493199
1420;16;relu;same;9;15;8;0.8544788544788545
1421;16;relu;same;9;30;8;0.7598398932621748
1422;16;relu;same;9;60;8;0.7940680822379508
1423;16;relu;valid;19;15;8;0.8281199613028055
1424;16;relu;valid;19;30;8;0.7745504840940526
1425;16;relu;valid;19;60;8;0.6822818284850773
1426;16;relu;same;19;15;8;0.8293706293706292
1427;16;relu;same;19;30;8;0.8110717734148697
1428;16;relu;same;19;60;8;0.7869780608634112
1429;16;relu;valid;38;15;8;0.8275862068965517
1430;16;relu;valid;38;30;8;0.814119170984456
1431;16;relu;valid;38;60;8;0.804770017035775
1432;16;relu;same;38;15;8;0.7836147592245153
1433;16;relu;same;38;30;8;0.7974683544303798
1434;16;relu;same;38;60;8;0.7308518253400142
1435;16;relu;valid;76;15;8;0.802618657937807
1436;16;relu;valid;76;30;8;0.795877659574468
1437;16;relu;valid;76;60;8;0.8247694334650857
1438;16;relu;same;76;15;8;0.7824474660074167
1439;16;relu;same;76;30;8;0.8558238636363638
1440;16;relu;same;76;60;8;0.7948804311215898
1441;32;elu;valid;9;15;8;0.8211570247933884
1442;32;elu;valid;9;30;8;0.8168634064080944
1443;32;elu;valid;9;60;8;0.7741037243299687
1444;32;elu;same;9;15;8;0.7851590106007067
1445;32;elu;same;9;30;8;0.8323892035988003
1446;32;elu;same;9;60;8;0.8555030384875084
1447;32;elu;valid;19;15;8;0.8345988775173324
1448;32;elu;valid;19;30;8;0.8248512888301388
1449;32;elu;valid;19;60;8;0.7928043687761002
1450;32;elu;same;19;15;8;0.8402597402597403
1451;32;elu;same;19;30;8;0.7705627705627706
1452;32;elu;same;19;60;8;0.8002589834898025
1453;32;elu;valid;38;15;8;0.7825793382849426
1454;32;elu;valid;38;30;8;0.8463373083475298
1455;32;elu;valid;38;60;8;0.8234514739980126
1456;32;elu;same;38;15;8;0.7811333559552086
1457;32;elu;same;38;30;8;0.7726396917148363
1458;32;elu;same;38;60;8;0.776470588235294
1459;32;elu;valid;76;15;8;0.7917635337097311
1460;32;elu;valid;76;30;8;0.8113083497698883
1461;32;elu;valid;76;60;8;0.7869481765834933
1462;32;elu;same;76;15;8;0.820102432778489
1463;32;elu;same;76;30;8;0.7905585106382979
1464;32;elu;same;76;60;8;0.7762803234501348
1465;32;relu;valid;9;15;8;0.8270531400966183
1466;32;relu;valid;9;30;8;0.7960771051741631
1467;32;relu;valid;9;60;8;0.803725881570193
1468;32;relu;same;9;15;8;0.7637063161269637
1469;32;relu;same;9;30;8;0.8222514812376563
1470;32;relu;same;9;60;8;0.7745030843043181
1471;32;relu;valid;19;15;8;0.7923462986198244
1472;32;relu;valid;19;30;8;0.7683810838798757
1473;32;relu;valid;19;60;8;0.7865557865557865
1474;32;relu;same;19;15;8;0.8042196711138692
1475;32;relu;same;19;30;8;0.7872134323538909
1476;32;relu;same;19;60;8;0.7625302454199794
1477;32;relu;valid;38;15;8;0.8109113453192808
1478;32;relu;valid;38;30;8;0.8227767114523351
1479;32;relu;valid;38;60;8;0.7855209742895805
1480;32;relu;same;38;15;8;0.8119325551232166
1481;32;relu;same;38;30;8;0.815389589395409
1482;32;relu;same;38;60;8;0.7124087591240876
1483;32;relu;valid;76;15;8;0.7930599369085173
1484;32;relu;valid;76;30;8;0.805721889554225
1485;32;relu;valid;76;60;8;0.8044206296048224
1486;32;relu;same;76;15;8;0.7884733292458616
1487;32;relu;same;76;30;8;0.7718684394681594
1488;32;relu;same;76;60;8;0.794370065224854
1489;64;elu;valid;9;15;8;0.827490454703228
1490;64;elu;valid;9;30;8;0.8443649373881933
1491;64;elu;valid;9;60;8;0.8130189305878445
1492;64;elu;same;9;15;8;0.8082278481012658
1493;64;elu;same;9;30;8;0.8017429193899783
1494;64;elu;same;9;60;8;0.8035544271659791
1495;64;elu;valid;19;15;8;0.8213710975217251
1496;64;elu;valid;19;30;8;0.8206503519946363
1497;64;elu;valid;19;60;8;0.7697031729785055
1498;64;elu;same;19;15;8;0.8357810413885179
1499;64;elu;same;19;30;8;0.8099337748344371
1500;64;elu;same;19;60;8;0.8199445983379502
1501;64;elu;valid;38;15;8;0.8296247093988707
1502;64;elu;valid;38;30;8;0.7603074772886094
1503;64;elu;valid;38;60;8;0.8027638190954773
1504;64;elu;same;38;15;8;0.8231902626521461
1505;64;elu;same;38;30;8;0.8347701149425287
1506;64;elu;same;38;60;8;0.7909207161125319
1507;64;elu;valid;76;15;8;0.8305937604830593
1508;64;elu;valid;76;30;8;0.7581427581427581
1509;64;elu;valid;76;60;8;0.7706696595585484
1510;64;elu;same;76;15;8;0.8353759523020868
1511;64;elu;same;76;30;8;0.8232207281075763
1512;64;elu;same;76;60;8;0.7986159169550173
1513;64;relu;valid;9;15;8;0.7929433611884864
1514;64;relu;valid;9;30;8;0.8181512605042017
1515;64;relu;valid;9;60;8;0.7325370973579444
1516;64;relu;same;9;15;8;0.8171156893819335
1517;64;relu;same;9;30;8;0.7586891757696126
1518;64;relu;same;9;60;8;0.7805892547660311
1519;64;relu;valid;19;15;8;0.7880112394630034
1520;64;relu;valid;19;30;8;0.8261327713382508
1521;64;relu;valid;19;60;8;0.7212518195050945
1522;64;relu;same;19;15;8;0.8304973821989529
1523;64;relu;same;19;30;8;0.8102429415627053
1524;64;relu;same;19;60;8;0.7698061883713023
1525;64;relu;valid;38;15;8;0.8074901445466491
1526;64;relu;valid;38;30;8;0.732030962034648
1527;64;relu;valid;38;60;8;0.8051775638898109
1528;64;relu;same;38;15;8;0.7833957553058676
1529;64;relu;same;38;30;8;0.8220617202889035
1530;64;relu;same;38;60;8;0.7639424763240968
1531;64;relu;valid;76;15;8;0.8168449197860963
1532;64;relu;valid;76;30;8;0.8110599078341013
1533;64;relu;valid;76;60;8;0.8008088978766431
1534;64;relu;same;76;15;8;0.7825278810408922
1535;64;relu;same;76;30;8;0.8301369863013698
1536;64;relu;same;76;60;8;0.70899854862119
1537;8;elu;valid;9;15;9;0.8283828382838283
1538;8;elu;valid;9;30;9;0.8377682403433476
1539;8;elu;valid;9;60;9;0.7378219050573999
1540;8;elu;same;9;15;9;0.8157099697885197
1541;8;elu;same;9;30;9;0.8089315997738835
1542;8;elu;same;9;60;9;0.8078541374474053
1543;8;elu;valid;19;15;9;0.8227571115973742
1544;8;elu;valid;19;30;9;0.8267937219730941
1545;8;elu;valid;19;60;9;0.8114059853190289
1546;8;elu;same;19;15;9;0.8193035371538251
1547;8;elu;same;19;30;9;0.830546265328874
1548;8;elu;same;19;60;9;0.7708766716196137
1549;8;elu;valid;38;15;9;0.8026315789473685
1550;8;elu;valid;38;30;9;0.8082579185520362
1551;8;elu;valid;38;60;9;0.7930629041740153
1552;8;elu;same;38;15;9;0.8042269187986651
1553;8;elu;same;38;30;9;0.8233618233618233
1554;8;elu;same;38;60;9;0.8194925028835063
1555;8;elu;valid;76;15;9;0.812881732370905
1556;8;elu;valid;76;30;9;0.8269713011981052
1557;8;elu;valid;76;60;9;0.7966101694915255
1558;8;elu;same;76;15;9;0.8124828907747057
1559;8;elu;same;76;30;9;0.8118249005116545
1560;8;elu;same;76;60;9;0.7998828010547905
1561;8;relu;valid;9;15;9;0.8235294117647058
1562;8;relu;valid;9;30;9;0.8209606986899564
1563;8;relu;valid;9;60;9;0.8217142857142856
1564;8;relu;same;9;15;9;0.8283828382838283
1565;8;relu;same;9;30;9;0.8260262496509355
1566;8;relu;same;9;60;9;0.7740398928252457
1567;8;relu;valid;19;15;9;0.8136338647608576
1568;8;relu;valid;19;30;9;0.8175224833188279
1569;8;relu;valid;19;60;9;0.7779141104294477
1570;8;relu;same;19;15;9;0.8170259812050857
1571;8;relu;same;19;30;9;0.8160919540229885
1572;8;relu;same;19;60;9;0.8371821104940075
1573;8;relu;valid;38;15;9;0.8269601100412654
1574;8;relu;valid;38;30;9;0.8234285714285714
1575;8;relu;valid;38;60;9;0.8030347242486139
1576;8;relu;same;38;15;9;0.8074534161490683
1577;8;relu;same;38;30;9;0.7998854852562268
1578;8;relu;same;38;60;9;0.8259484506226471
1579;8;relu;valid;76;15;9;0.8213166144200628
1580;8;relu;valid;76;30;9;0.7936786654960493
1581;8;relu;valid;76;60;9;0.768452380952381
1582;8;relu;same;76;15;9;0.8256070640176599
1583;8;relu;same;76;30;9;0.8046242774566474
1584;8;relu;same;76;60;9;0.7821059038344492
1585;16;elu;valid;9;15;9;0.8146067415730337
1586;16;elu;valid;9;30;9;0.8252021187621967
1587;16;elu;valid;9;60;9;0.8067370825007136
1588;16;elu;same;9;15;9;0.8157749586321015
1589;16;elu;same;9;30;9;0.8036845135290731
1590;16;elu;same;9;60;9;0.7845736667670985
1591;16;elu;valid;19;15;9;0.8092358438702583
1592;16;elu;valid;19;30;9;0.8109619686800896
1593;16;elu;valid;19;60;9;0.8218714768883878
1594;16;elu;same;19;15;9;0.8091644204851752
1595;16;elu;same;19;30;9;0.8126896551724138
1596;16;elu;same;19;60;9;0.8122368790345215
1597;16;elu;valid;38;15;9;0.8103161397670549
1598;16;elu;valid;38;30;9;0.8263439347030679
1599;16;elu;valid;38;60;9;0.8153191489361703
1600;16;elu;same;38;15;9;0.8014223194748358
1601;16;elu;same;38;30;9;0.8110986547085202
1602;16;elu;same;38;60;9;0.7934845840605004
1603;16;elu;valid;76;15;9;0.7959641255605381
1604;16;elu;valid;76;30;9;0.8179508890770534
1605;16;elu;valid;76;60;9;0.8072562358276644
1606;16;elu;same;76;15;9;0.8079650845608292
1607;16;elu;same;76;30;9;0.8283727399165508
1608;16;elu;same;76;60;9;0.817155756207675
1609;16;relu;valid;9;15;9;0.8263772954924874
1610;16;relu;valid;9;30;9;0.7820786345626335
1611;16;relu;valid;9;60;9;0.7806372549019609
1612;16;relu;same;9;15;9;0.8063527444970745
1613;16;relu;same;9;30;9;0.7958596894767107
1614;16;relu;same;9;60;9;0.8185853802900266
1615;16;relu;valid;19;15;9;0.8233673188206118
1616;16;relu;valid;19;30;9;0.8333333333333333
1617;16;relu;valid;19;60;9;0.8259085580304806
1618;16;relu;same;19;15;9;0.8141985579589572
1619;16;relu;same;19;30;9;0.8235622557230597
1620;16;relu;same;19;60;9;0.8143643208803938
1621;16;relu;valid;38;15;9;0.810871392546932
1622;16;relu;valid;38;30;9;0.842548414257648
1623;16;relu;valid;38;60;9;0.8
1624;16;relu;same;38;15;9;0.8112676056338028
1625;16;relu;same;38;30;9;0.8181818181818183
1626;16;relu;same;38;60;9;0.819800784787202
1627;16;relu;valid;76;15;9;0.8127577673907066
1628;16;relu;valid;76;30;9;0.8182611224193079
1629;16;relu;valid;76;60;9;0.8225519287833828
1630;16;relu;same;76;15;9;0.8131929046563193
1631;16;relu;same;76;30;9;0.7944803288314738
1632;16;relu;same;76;60;9;0.814877910278251
1633;32;elu;valid;9;15;9;0.8095502498611882
1634;32;elu;valid;9;30;9;0.813979706877114
1635;32;elu;valid;9;60;9;0.8215962441314554
1636;32;elu;same;9;15;9;0.8082117774176121
1637;32;elu;same;9;30;9;0.8154727793696275
1638;32;elu;same;9;60;9;0.8130221838087006
1639;32;elu;valid;19;15;9;0.8087402212031292
1640;32;elu;valid;19;30;9;0.8135304150085276
1641;32;elu;valid;19;60;9;0.8220753089968382
1642;32;elu;same;19;15;9;0.7970936490850377
1643;32;elu;same;19;30;9;0.8092650843580212
1644;32;elu;same;19;60;9;0.819378325399048
1645;32;elu;valid;38;15;9;0.8034094033544129
1646;32;elu;valid;38;30;9;0.8198347107438018
1647;32;elu;valid;38;60;9;0.8166619438934543
1648;32;elu;same;38;15;9;0.8075067024128687
1649;32;elu;same;38;30;9;0.8183856502242153
1650;32;elu;same;38;60;9;0.8273202974387222
1651;32;elu;valid;76;15;9;0.8079978088195015
1652;32;elu;valid;76;30;9;0.8125862544852333
1653;32;elu;valid;76;60;9;0.8083309878975514
1654;32;elu;same;76;15;9;0.8063718758582807
1655;32;elu;same;76;30;9;0.8143779837124404
1656;32;elu;same;76;60;9;0.8038879359634076
1657;32;relu;valid;9;15;9;0.8128783709411117
1658;32;relu;valid;9;30;9;0.8113101903695409
1659;32;relu;valid;9;60;9;0.802065404475043
1660;32;relu;same;9;15;9;0.8133891213389122
1661;32;relu;same;9;30;9;0.8266892847045518
1662;32;relu;same;9;60;9;0.7961822660098522
1663;32;relu;valid;19;15;9;0.8223322332233224
1664;32;relu;valid;19;30;9;0.8297040759352317
1665;32;relu;valid;19;60;9;0.829939776312016
1666;32;relu;same;19;15;9;0.8227222832052691
1667;32;relu;same;19;30;9;0.8157970596713752
1668;32;relu;same;19;60;9;0.8156392694063926
1669;32;relu;valid;38;15;9;0.8217687074829932
1670;32;relu;valid;38;30;9;0.7993177942012506
1671;32;relu;valid;38;60;9;0.8028802880288028
1672;32;relu;same;38;15;9;0.8099945085118068
1673;32;relu;same;38;30;9;0.8228195282501372
1674;32;relu;same;38;60;9;0.8067226890756302
1675;32;relu;valid;76;15;9;0.8173155458753062
1676;32;relu;valid;76;30;9;0.8074788197487585
1677;32;relu;valid;76;60;9;0.8303753273203375
1678;32;relu;same;76;15;9;0.8201634877384196
1679;32;relu;same;76;30;9;0.7945593652592802
1680;32;relu;same;76;60;9;0.8343091334894613
1681;64;elu;valid;9;15;9;0.8076923076923077
1682;64;elu;valid;9;30;9;0.8178070898598515
1683;64;elu;valid;9;60;9;0.8085475021657523
1684;64;elu;same;9;15;9;0.7965461413923366
1685;64;elu;same;9;30;9;0.8034521158129175
1686;64;elu;same;9;60;9;0.8165007112375533
1687;64;elu;valid;19;15;9;0.8027434842249657
1688;64;elu;valid;19;30;9;0.822079013729336
1689;64;elu;valid;19;60;9;0.8357787810383748
1690;64;elu;same;19;15;9;0.8055555555555556
1691;64;elu;same;19;30;9;0.8081314397103871
1692;64;elu;same;19;60;9;0.8208504801097394
1693;64;elu;valid;38;15;9;0.8205408358372029
1694;64;elu;valid;38;30;9;0.8030426514534094
1695;64;elu;valid;38;60;9;0.8196812971764048
1696;64;elu;same;38;15;9;0.7892092039143084
1697;64;elu;same;38;30;9;0.8133259911894273
1698;64;elu;same;38;60;9;0.8119139547710977
1699;64;elu;valid;76;15;9;0.8021978021978023
1700;64;elu;valid;76;30;9;0.8067740144364242
1701;64;elu;valid;76;60;9;0.8159645232815965
1702;64;elu;same;76;15;9;0.7861453686696405
1703;64;elu;same;76;30;9;0.8068833652007648
1704;64;elu;same;76;60;9;0.8083333333333333
1705;64;relu;valid;9;15;9;0.8093776165224672
1706;64;relu;valid;9;30;9;0.7994029850746268
1707;64;relu;valid;9;60;9;0.7284681130834976
1708;64;relu;same;9;15;9;0.8159779614325069
1709;64;relu;same;9;30;9;0.8224783861671469
1710;64;relu;same;9;60;9;0.8002500781494217
1711;64;relu;valid;19;15;9;0.8091822094691536
1712;64;relu;valid;19;30;9;0.8018867924528302
1713;64;relu;valid;19;60;9;0.8322802986789202
1714;64;relu;same;19;15;9;0.7874149659863946
1715;64;relu;same;19;30;9;0.8105544026089534
1716;64;relu;same;19;60;9;0.8259290304554345
1717;64;relu;valid;38;15;9;0.8085698386199222
1718;64;relu;valid;38;30;9;0.8095781071835804
1719;64;relu;valid;38;60;9;0.8173706127305176
1720;64;relu;same;38;15;9;0.8162251655629138
1721;64;relu;same;38;30;9;0.7997734352874541
1722;64;relu;same;38;60;9;0.7895584917821463
1723;64;relu;valid;76;15;9;0.8067179049245659
1724;64;relu;valid;76;30;9;0.8070675406098605
1725;64;relu;valid;76;60;9;0.7991211550533583
1726;64;relu;same;76;15;9;0.8056478405315615
1727;64;relu;same;76;30;9;0.8032511210762331
1728;64;relu;same;76;60;9;0.7621187800963082
1729;8;elu;valid;9;15;10;0.6019801980198021
1730;8;elu;valid;9;30;10;0.42857142857142855
1731;8;elu;valid;9;60;10;0.47133182844243793
1732;8;elu;same;9;15;10;0.6154461784713886
1733;8;elu;same;9;30;10;0.5755395683453238
1734;8;elu;same;9;60;10;0.3624288425047439
1735;8;elu;valid;19;15;10;0.5666816344858554
1736;8;elu;valid;19;30;10;0.6297941057731126
1737;8;elu;valid;19;60;10;0.511252653927813
1738;8;elu;same;19;15;10;0.639935196435804
1739;8;elu;same;19;30;10;0.6572327044025157
1740;8;elu;same;19;60;10;0.5636215334420881
1741;8;elu;valid;38;15;10;0.6333958724202627
1742;8;elu;valid;38;30;10;0.5028927458834
1743;8;elu;valid;38;60;10;0.4122766834631241
1744;8;elu;same;38;15;10;0.6830233478432924
1745;8;elu;same;38;30;10;0.46906987093902985
1746;8;elu;same;38;60;10;0.6062602965403625
1747;8;elu;valid;76;15;10;0.7301349325337332
1748;8;elu;valid;76;30;10;0.5523184242921626
1749;8;elu;valid;76;60;10;0.39718309859154927
1750;8;elu;same;76;15;10;0.6214141414141414
1751;8;elu;same;76;30;10;0.5065098698026039
1752;8;elu;same;76;60;10;0.5488172043010753
1753;8;relu;valid;9;15;10;0.6383792048929664
1754;8;relu;valid;9;30;10;0.5955006616674018
1755;8;relu;valid;9;60;10;0.6191553544494721
1756;8;relu;same;9;15;10;0.5010912265386294
1757;8;relu;same;9;30;10;0.5595544130248501
1758;8;relu;same;9;60;10;0.4374152733845459
1759;8;relu;valid;19;15;10;0.5935919055649241
1760;8;relu;valid;19;30;10;0.5548027102431248
1761;8;relu;valid;19;60;10;0.5167381974248926
1762;8;relu;same;19;15;10;0.6004008016032063
1763;8;relu;same;19;30;10;0.5468615649183147
1764;8;relu;same;19;60;10;0.4858807709547288
1765;8;relu;valid;38;15;10;0.5858585858585857
1766;8;relu;valid;38;30;10;0.3195564516129032
1767;8;relu;valid;38;60;10;0.4723707664884136
1768;8;relu;same;38;15;10;0.6030034655371582
1769;8;relu;same;38;30;10;0.5596491228070175
1770;8;relu;same;38;60;10;0.33531746031746035
1771;8;relu;valid;76;15;10;0.6032138442521632
1772;8;relu;valid;76;30;10;0.3593675131768088
1773;8;relu;valid;76;60;10;0.48291571753986334
1774;8;relu;same;76;15;10;0.5281132861307788
1775;8;relu;same;76;30;10;0.4094769780956638
1776;8;relu;same;76;60;10;0.5423728813559323
1777;16;elu;valid;9;15;10;0.5467445742904841
1778;16;elu;valid;9;30;10;0.47225920994229914
1779;16;elu;valid;9;60;10;0.5331025530073562
1780;16;elu;same;9;15;10;0.6026516673362797
1781;16;elu;same;9;30;10;0.6
1782;16;elu;same;9;60;10;0.6153238546603474
1783;16;elu;valid;19;15;10;0.4471153846153847
1784;16;elu;valid;19;30;10;0.5488372093023255
1785;16;elu;valid;19;60;10;0.40604949587534367
1786;16;elu;same;19;15;10;0.6082104424073337
1787;16;elu;same;19;30;10;0.38532961931290627
1788;16;elu;same;19;60;10;0.5749486652977412
1789;16;elu;valid;38;15;10;0.6536509176103085
1790;16;elu;valid;38;30;10;0.53598233995585
1791;16;elu;valid;38;60;10;0.49978194505015267
1792;16;elu;same;38;15;10;0.6226126814362108
1793;16;elu;same;38;30;10;0.42133572389063195
1794;16;elu;same;38;60;10;0.3748211731044348
1795;16;elu;valid;76;15;10;0.6744186046511628
1796;16;elu;valid;76;30;10;0.5972961900860303
1797;16;elu;valid;76;60;10;0.3853820598006644
1798;16;elu;same;76;15;10;0.6613482249700838
1799;16;elu;same;76;30;10;0.41400987876066453
1800;16;elu;same;76;60;10;0.6645443692797453
1801;16;relu;valid;9;15;10;0.3744720788362271
1802;16;relu;valid;9;30;10;0.48782728525493807
1803;16;relu;valid;9;60;10;0.5223946784922394
1804;16;relu;same;9;15;10;0.5702713649250709
1805;16;relu;same;9;30;10;0.39673913043478265
1806;16;relu;same;9;60;10;0.41229314420803775
1807;16;relu;valid;19;15;10;0.5235243798118049
1808;16;relu;valid;19;30;10;0.35067437379576105
1809;16;relu;valid;19;60;10;0.593633732947499
1810;16;relu;same;19;15;10;0.34632461766156886
1811;16;relu;same;19;30;10;0.4134748500230734
1812;16;relu;same;19;60;10;0.45673876871880204
1813;16;relu;valid;38;15;10;0.5995222929936306
1814;16;relu;valid;38;30;10;0.376425855513308
1815;16;relu;valid;38;60;10;0.3973063973063973
1816;16;relu;same;38;15;10;0.6039404905508645
1817;16;relu;same;38;30;10;0.6074570590699623
1818;16;relu;same;38;60;10;0.3446932814021422
1819;16;relu;valid;76;15;10;0.7060572277963583
1820;16;relu;valid;76;30;10;0.5780730897009967
1821;16;relu;valid;76;60;10;0.4713804713804714
1822;16;relu;same;76;15;10;0.5402641670217299
1823;16;relu;same;76;30;10;0.5249110320284698
1824;16;relu;same;76;60;10;0.6058683584456781
1825;32;elu;valid;9;15;10;0.6095947063689
1826;32;elu;valid;9;30;10;0.44563758389261743
1827;32;elu;valid;9;60;10;0.40915733073550903
1828;32;elu;same;9;15;10;0.6333469889389595
1829;32;elu;same;9;30;10;0.5983701979045403
1830;32;elu;same;9;60;10;0.5916795069337443
1831;32;elu;valid;19;15;10;0.7019969278033793
1832;32;elu;valid;19;30;10;0.6004962779156328
1833;32;elu;valid;19;60;10;0.5425170068027211
1834;32;elu;same;19;15;10;0.6953959484346226
1835;32;elu;same;19;30;10;0.5727541121889498
1836;32;elu;same;19;60;10;0.6092233009708738
1837;32;elu;valid;38;15;10;0.6441385064664163
1838;32;elu;valid;38;30;10;0.47662278710848843
1839;32;elu;valid;38;60;10;0.560035445281347
1840;32;elu;same;38;15;10;0.6654330125832716
1841;32;elu;same;38;30;10;0.5606247431154951
1842;32;elu;same;38;60;10;0.6603847663918335
1843;32;elu;valid;76;15;10;0.6447209955841028
1844;32;elu;valid;76;30;10;0.6604913411196134
1845;32;elu;valid;76;60;10;0.3851417399804496
1846;32;elu;same;76;15;10;0.6911383018168337
1847;32;elu;same;76;30;10;0.3904418394950406
1848;32;elu;same;76;60;10;0.5209176788124156
1849;32;relu;valid;9;15;10;0.5652355147978325
1850;32;relu;valid;9;30;10;0.34195402298850575
1851;32;relu;valid;9;60;10;0.5456073980664146
1852;32;relu;same;9;15;10;0.48667540410659677
1853;32;relu;same;9;30;10;0.5493017350825222
1854;32;relu;same;9;60;10;0.42298850574712643
1855;32;relu;valid;19;15;10;0.589081675835802
1856;32;relu;valid;19;30;10;0.4185828249648053
1857;32;relu;valid;19;60;10;0.5094091903719913
1858;32;relu;same;19;15;10;0.6153846153846154
1859;32;relu;same;19;30;10;0.5997657165169856
1860;32;relu;same;19;60;10;0.6284584980237155
1861;32;relu;valid;38;15;10;0.5268085106382979
1862;32;relu;valid;38;30;10;0.4055684454756381
1863;32;relu;valid;38;60;10;0.6594115276098348
1864;32;relu;same;38;15;10;0.43380027112516945
1865;32;relu;same;38;30;10;0.557004627681952
1866;32;relu;same;38;60;10;0.45270270270270263
1867;32;relu;valid;76;15;10;0.49011857707509887
1868;32;relu;valid;76;30;10;0.508916920400174
1869;32;relu;valid;76;60;10;0.4968833481745325
1870;32;relu;same;76;15;10;0.5719163465642338
1871;32;relu;same;76;30;10;0.5405844155844156
1872;32;relu;same;76;60;10;0.4957118353344769
1873;64;elu;valid;9;15;10;0.6384905660377358
1874;64;elu;valid;9;30;10;0.600900532132624
1875;64;elu;valid;9;60;10;0.6008097165991904
1876;64;elu;same;9;15;10;0.656282450674974
1877;64;elu;same;9;30;10;0.6255238095238095
1878;64;elu;same;9;60;10;0.5791666666666666
1879;64;elu;valid;19;15;10;0.6555023923444976
1880;64;elu;valid;19;30;10;0.6505842442517905
1881;64;elu;valid;19;60;10;0.5948592411260709
1882;64;elu;same;19;15;10;0.6798561151079137
1883;64;elu;same;19;30;10;0.6528861154446178
1884;64;elu;same;19;60;10;0.5956034840315222
1885;64;elu;valid;38;15;10;0.5758691206543968
1886;64;elu;valid;38;30;10;0.5936367297623842
1887;64;elu;valid;38;60;10;0.5133251332513326
1888;64;elu;same;38;15;10;0.6156178923426838
1889;64;elu;same;38;30;10;0.6052202283849919
1890;64;elu;same;38;60;10;0.5721192586623691
1891;64;elu;valid;76;15;10;0.6972540841153981
1892;64;elu;valid;76;30;10;0.6143533123028392
1893;64;elu;valid;76;60;10;0.5931995083981975
1894;64;elu;same;76;15;10;0.6783919597989949
1895;64;elu;same;76;30;10;0.7149321266968326
1896;64;elu;same;76;60;10;0.4672131147540983
1897;64;relu;valid;9;15;10;0.5872812633376013
1898;64;relu;valid;9;30;10;0.45229681978798586
1899;64;relu;valid;9;60;10;0.5993294216261527
1900;64;relu;same;9;15;10;0.485473289597001
1901;64;relu;same;9;30;10;0.5555090071219103
1902;64;relu;same;9;60;10;0.37968675842429994
1903;64;relu;valid;19;15;10;0.4422809457579972
1904;64;relu;valid;19;30;10;0.35426889106967613
1905;64;relu;valid;19;60;10;0.5751689189189189
1906;64;relu;same;19;15;10;0.6887417218543046
1907;64;relu;same;19;30;10;0.47932489451476795
1908;64;relu;same;19;60;10;0.7221396731054979
1909;64;relu;valid;38;15;10;0.40822179732313574
1910;64;relu;valid;38;30;10;0.49707602339181284
1911;64;relu;valid;38;60;10;0.5964356435643565
1912;64;relu;same;38;15;10;0.6379707916986933
1913;64;relu;same;38;30;10;0.6303030303030303
1914;64;relu;same;38;60;10;0.4687774846086192
1915;64;relu;valid;76;15;10;0.6614846482705015
1916;64;relu;valid;76;30;10;0.39567669172932335
1917;64;relu;valid;76;60;10;0.3387815750371471
1918;64;relu;same;76;15;10;0.6645544554455446
1919;64;relu;same;76;30;10;0.5536390408077408
1920;64;relu;same;76;60;10;0.43430152143845097