id,model_data_type,preprocessing_type,window_size,overlapping,standarize,normalize,num_validation_subjects,num_epochs,callback_list,batch_size,num_iter,n_splits,previous_conv,num_pb,filters,kernel_size,batch_normalization,num_convolutional_layers,activation_conv_list,activation_dense,padding,depth_multiplier,conv_depthwise_constraint,conv_depthwise_regularizer,use_bias,partial_output,concat_mode,attention,attention_units,attention_activation,pool_size,pool_type,dropout_rate,dense_kernel_constraint,conv_kernel_regularizer,comments
1,raw,preprocessed_asr_04,2.0,0.5,1,0,4,15,None,128,1,10,0,6,64,128,0,2,"['elu','elu']",elu,same,1,None,None,1,76,AVG,0,76,relu,2,AVG,0.5,None,None,""
2,raw,preprocessed_asr_04,2.0,0.5,1,0,4,15,None,128,4,10,0,6,64,128,0,2,"['elu','elu']",elu,same,1,None,None,1,76,AVG,0,76,relu,2,AVG,0.5,None,None,""
3,raw,preprocessed_asr,2.0,0.5,1,0,4,15,None,128,4,10,0,6,64,128,0,2,"['elu','elu']",elu,same,1,None,None,1,76,AVG,0,76,relu,2,AVG,0.5,None,None,""
4,raw,preprocessed_asr_04,2.0,0.5,1,0,4,15,None,128,4,10,0,6,64,128,0,2,"['elu','elu']",elu,same,1,None,None,1,76,MAX,0,76,relu,2,AVG,0.5,None,None,""
5,raw,preprocessed_asr_04,2.0,0.5,1,0,4,15,None,128,4,10,0,6,64,128,0,2,"['elu','elu']",elu,same,1,None,None,1,76,MIN,0,76,relu,2,AVG,0.5,None,None,""
6,raw,preprocessed_asr_04,2.0,0.5,1,0,4,15,None,128,4,10,0,6,64,128,0,2,"['elu','elu']",elu,same,1,None,None,1,76,CON,0,76,relu,2,AVG,0.5,None,None,""
7,raw,preprocessed_asr_04,2.0,0.5,1,0,4,15,None,128,4,10,0,6,64,128,0,2,"['elu','elu']",elu,same,1,None,None,1,76,MAX,0,76,relu,2,MAX,0.5,None,None,""
8,raw,preprocessed_asr_04,2.0,0.5,1,0,4,2,None,128,2,10,0,6,64,128,0,2,"['elu','elu']",elu,same,1,None,None,1,76,MAX,0,76,relu,2,MAX,0.5,None,None,""
9,raw,preprocessed_asr_04,2.0,0.5,1,0,4,20,None,128,4,10,0,6,64,128,0,2,"['elu','elu']",elu,same,1,None,None,1,76,MAX,0,76,relu,2,MAX,0.5,None,None,""
10,raw,preprocessed_asr_04,2.0,0.5,1,0,4,2,None,128,2,10,0,6,64,128,0,2,"['elu','elu']",elu,same,1,None,None,1,512,MAX,0,76,relu,2,MAX,0.5,None,None,""
11,raw,preprocessed_asr_04,2.0,0.5,1,0,4,2,None,128,4,10,0,6,512,128,0,2,"['elu','elu']",elu,same,1,None,None,1,512,MAX,0,76,relu,2,MAX,0.5,None,None,""
12,raw,preprocessed_asr_04,2.0,0.5,1,0,4,15,None,128,4,10,0,6,64,128,0,2,"['elu','elu']",elu,same,1,None,None,1,76,MAX,0,76,relu,2,MAX,0.5,None,None,""
13,raw,preprocessed_asr_04,2.0,0.5,1,0,4,15,None,128,4,10,0,6,64,128,0,2,"[False,'elu']",elu,same,1,None,None,1,76,MAX,0,76,relu,2,MAX,0.5,None,None,""
14,raw,preprocessed_asr_04,2.0,0.5,1,1,4,15,None,128,4,10,0,6,64,128,0,2,"['elu','elu']",elu,same,1,None,None,1,76,MAX,0,76,relu,2,MAX,0.5,None,None,""
15,raw,preprocessed_asr_04,2.0,0.5,1,1,4,100,None,128,4,10,0,6,64,128,0,2,"['elu','elu']",elu,same,1,None,None,1,76,MAX,0,76,relu,2,MAX,0.5,None,None,""
16,raw,preprocessed_asr_04,2.0,0.5,1,1,4,25,None,128,4,10,0,6,64,128,0,2,"['elu','elu']",elu,same,1,None,None,1,76,MAX,0,76,relu,2,MAX,0.5,None,None,""
17,raw,preprocessed_asr_04,4.0,0.5,1,0,4,15,None,128,4,10,0,6,64,128,0,2,"['elu','elu']",elu,same,1,None,None,1,76,MAX,0,76,relu,2,MAX,0.5,None,None,""
18,raw,preprocessed_asr_04,2.0,0.5,1,0,4,15,None,128,4,10,0,6,64,128,0,2,"[None, 'relu']",relu,same,1,None,None,1,76,MAX,0,76,relu,2,MAX,0.5,None,None,""
19,raw,preprocessed_asr_04,2.0,0.5,1,0,4,15,None,128,4,10,0,6,64,128,0,2,"['relu','relu']",relu,same,1,None,None,1,76,MAX,0,76,relu,2,MAX,0.5,None,None,""
20,raw,preprocessed_asr_04,2.0,0.5,1,0,4,15,None,128,4,10,0,6,64,128,0,2,"[None, 'tanh']",relu,same,1,None,None,1,76,MAX,0,76,relu,2,MAX,0.5,None,None,""
21,raw,preprocessed_asr_04,2.0,0.5,1,0,4,100,None,128,4,10,0,6,64,128,0,2,"['sigmoid','sigmoid']",sigmoid,same,1,None,None,1,76,AVG,0,76,relu,2,AVG,0.5,None,None,""
22,raw,preprocessed_asr_04,2.0,0.5,1,0,4,15,None,128,4,10,0,6,64,128,0,2,"[None, 'relu']",relu,same,1,None,None,1,76,ALL,0,76,relu,2,MAX,0.5,None,None,"BEST"
23,raw,preprocessed_asr_04,2.0,0.5,1,0,4,15,None,128,4,10,0,6,64,128,0,2,"[None, 'relu']",relu,same,1,None,None,1,76,ALL,1,76,relu,2,MAX,0.5,None,None,""
24,raw,preprocessed_asr_04,2.0,0.5,1,0,4,15,None,128,4,10,0,6,64,128,0,4,"[None, None, None, 'relu']",relu,same,1,None,None,1,76,ALL,1,228,relu,2,MAX,0.5,None,None,""
25,raw,preprocessed_asr_04_off,2.0,0.5,1,0,4,15,None,128,4,10,0,6,64,128,0,2,"[None, 'relu']",relu,same,1,None,None,1,76,ALL,0,76,relu,2,MAX,0.5,None,None,""
26,raw,preprocessed_asr_04_off,2.0,0.5,1,0,4,15,None,128,4,10,0,6,64,128,0,2,"[None, 'relu']",relu,same,32,None,None,1,76,ALL,0,76,relu,2,MAX,0.5,None,None,""
27,raw,preprocessed_asr_04,2.0,0.5,1,0,4,15,None,128,4,10,0,6,64,128,0,2,"[None, 'relu']",relu,same,4,None,None,0,76,ALL,0,76,relu,2,MAX,0.5,None,None,""
28,raw,preprocessed_asr_04,2.0,0.5,1,0,4,15,None,128,4,10,0,6,64,128,0,2,"[None, 'relu']",relu,same,32,None,None,1,76,ALL,0,76,relu,2,MAX,0.5,None,None,""
29,raw,preprocessed_asr_04,2.0,0.5,1,0,4,15,None,128,4,10,0,6,64,128,0,2,"[None, 'relu']",relu,same,32,None,None,1,76,ALL,1,228,relu,2,MAX,0.5,None,None,""
30,raw,preprocessed_asr_04,2.0,0.5,1,0,4,15,None,128,4,10,1,6,64,128,0,2,"[None, 'relu']",relu,same,2,None,None,0,32,ALL,0,228,relu,2,MAX,0.5,None,None,""
31,raw,preprocessed_asr_04,2.0,0.5,1,0,4,15,None,128,4,10,0,6,64,128,1,2,"[None, None]",relu,same,2,None,None,0,64,ALL,0,228,relu,2,MAX,0.5,None,None,"Added Batch normalization in each pb"
32,raw,preprocessed_asr_04,2.0,0.5,1,0,4,100,None,128,4,10,0,6,64,128,1,2,"[None, None]",relu,same,2,None,None,0,64,ALL,1,228,relu,2,MAX,0.5,None,None,"Added Batch normalization in each pb but 100 epochs"
33,raw,preprocessed_asr_04,2.0,0.5,1,0,4,15,None,128,4,10,0,6,64,128,0,2,"[None, 'relu']",relu,same,1,None,None,1,76,ALL,0,76,relu,2,MAX,0.5,None,None,"BEST"
34,raw,preprocessed_asr_04,2.0,0.5,1,0,4,15,None,128,4,10,0,6,64,128,0,2,"[None, 'relu']",relu,same,1,None,None,1,76,ALL,0,76,relu,2,MAX,0.5,None,None,"BEST New constraint mode"
35,raw,preprocessed_asr_04,2.0,0.5,1,0,4,15,None,128,4,10,0,6,64,128,0,2,"[None, 'relu']",relu,same,1,1.0,None,1,76,ALL,0,76,relu,2,MAX,0.5,0.25,None,"BEST with constraints"
36,raw,preprocessed_asr_04,2.0,0.5,1,0,4,30,None,128,4,10,0,6,64,128,0,2,"[None, 'relu']",relu,same,1,None,0.1,1,76,ALL,0,76,relu,2,MAX,0.5,None,0.1,"BEST with regularization"
37,raw,preprocessed_asr_04,2.0,0.5,1,0,4,100,"['EarlyStopping']",128,4,10,0,6,64,128,0,2,"[None, 'relu']",relu,same,1,None,0.01,1,76,ALL,0,76,relu,2,MAX,0.5,None,0.01,"BEST with regularization and early stopping"
38,raw,preprocessed_asr_04,2.0,0.5,1,0,4,15,None,128,4,10,0,6,64,128,0,2,"[None, 'relu']",relu,same,1,None,0.01,1,76,ALL,0,76,relu,2,MAX,0.5,None,0.01,"BEST with regularization"

